# x_coord y_coord z_coord class

-0.593941 0.289114 1.0 1
-0.584503 0.29116 1.0 1
-0.566332 0.373464 1.0 1
-0.594789 0.367407 1.0 1
-0.659091 0.335031 1.0 1
-0.598166 0.318954 1.0 1
-0.574262 0.340977 1.0 1
-0.625289 0.351013 1.0 1
-0.64099 0.397291 1.0 1
-0.637368 0.419226 1.0 1
-0.592744 0.373964 1.0 1
-0.636306 0.34726 1.0 1
-0.711353 0.322535 1.0 1
-0.578189 0.399725 1.0 1
-0.628121 0.306461 1.0 1
-0.609256 0.329302 1.0 1
-0.5775 0.283791 1.0 1
-0.628145 0.332204 1.0 1
-0.587736 0.331304 1.0 1
-0.689566 0.295498 1.0 1
-0.584473 0.341331 1.0 1
-0.590592 0.322142 1.0 1
-0.632081 0.313553 1.0 1
-0.568822 0.344005 1.0 1
-0.625485 0.288658 1.0 1
-0.671609 0.321218 1.0 1
-0.642573 0.369919 1.0 1
-0.625183 0.218841 1.0 1
-0.552203 0.334817 1.0 1
-0.643834 0.272584 1.0 1
-0.587884 0.351442 1.0 1
-0.611392 0.309142 1.0 1
-0.658772 0.295834 1.0 1
-0.591132 0.394898 1.0 1
-0.664265 0.323183 1.0 1
-0.675687 0.326487 1.0 1
-0.593891 0.338385 1.0 1
-0.650251 0.355848 1.0 1
-0.601818 0.346352 1.0 1
-0.547927 0.317613 1.0 1
-0.528477 0.35332 1.0 1
-0.56716 0.36473 1.0 1
-0.639193 0.352141 1.0 1
-0.613374 0.328748 1.0 1
-0.540708 0.358987 1.0 1
-0.630439 0.346211 1.0 1
-0.567031 0.247888 1.0 1
-0.61119 0.313254 1.0 1
-0.633961 0.369502 1.0 1
-0.623234 0.283567 1.0 1
-0.623204 0.28537 1.0 1
-0.604802 0.317565 1.0 1
-0.548293 0.248321 1.0 1
-0.587442 0.410214 1.0 1
-0.569754 0.367984 1.0 1
-0.591922 0.268911 1.0 1
-0.688711 0.36046 1.0 1
-0.567107 0.317366 1.0 1
-0.611343 0.268737 1.0 1
-0.586344 0.29681 1.0 1
-0.540799 0.339644 1.0 1
-0.629112 0.321034 1.0 1
-0.620429 0.308364 1.0 1
-0.588004 0.284133 1.0 1
-0.662458 0.316196 1.0 1
-0.621642 0.32562 1.0 1
-0.593291 0.337448 1.0 1
-0.54972 0.357633 1.0 1
-0.598308 0.308415 1.0 1
-0.621199 0.352742 1.0 1
-0.576783 0.342429 1.0 1
-0.643156 0.321311 1.0 1
-0.535914 0.347747 1.0 1
-0.562025 0.34282 1.0 1
-0.59375 0.295113 1.0 1
-0.558671 0.266482 1.0 1
-0.645954 0.426609 1.0 1
-0.535494 0.327704 1.0 1
-0.650677 0.379619 1.0 1
-0.563414 0.302305 1.0 1
-0.499243 0.288824 1.0 1
-0.602874 0.384563 1.0 1
-0.0546075 0.430603 1.0 1
-0.0295791 0.405575 1.0 1
-0.0284414 0.405575 1.0 1
0.0375427 0.419226 1.0 1
-0.638225 0.129124 1.0 1
-0.692833 0.178043 1.0 1
-0.61309 0.227215 1.0 1
-0.615483 0.236573 1.0 1
-0.637431 0.389311 1.0 1
-0.58794 0.346602 1.0 1
-0.575675 0.355365 1.0 1
-0.543835 0.332262 1.0 1
-0.520097 0.328548 1.0 1
-0.558482 0.342833 1.0 1
-0.586559 0.289882 1.0 1
-0.559165 0.266392 1.0 1
-0.554223 0.248723 1.0 1
-0.555811 0.375725 1.0 1
-0.539115 0.313412 1.0 1
-0.573884 0.395344 1.0 1
-0.552919 0.329767 1.0 1
-0.541551 0.339078 1.0 1
-0.530763 0.305385 1.0 1
-0.603709 0.327559 1.0 1
-0.545166 0.264705 1.0 1
-0.605577 0.306446 1.0 1
-0.554358 0.241573 1.0 1
-0.555964 0.329806 1.0 1
-0.546786 0.318961 1.0 1
-0.516771 0.308658 1.0 1
-0.586387 0.362429 1.0 1
-0.58111 0.304078 1.0 1
-0.505726 0.312674 1.0 1
-0.577143 0.248962 1.0 1
-0.576507 0.358413 1.0 1
-0.528531 0.251926 1.0 1
-0.54388 0.350688 1.0 1
-0.616786 0.366846 1.0 1
-0.534876 0.23898 1.0 1
-0.513577 0.284914 1.0 1
-0.56849 0.331976 1.0 1
-0.551145 0.377364 1.0 1
-0.57183 0.353574 1.0 1
-0.565425 0.30361 1.0 1
-0.575321 0.303973 1.0 1
-0.502486 0.326158 1.0 1
-0.563087 0.302806 1.0 1
-0.583138 0.343713 1.0 1
-0.590339 0.33135 1.0 1
-0.513454 0.34788 1.0 1
-0.544392 0.274807 1.0 1
-0.515249 0.372261 1.0 1
-0.5082 0.358513 1.0 1
-0.594678 0.327395 1.0 1
-0.548609 0.317192 1.0 1
-0.504995 0.271377 1.0 1
-0.593312 0.250769 1.0 1
-0.51585 0.326704 1.0 1
-0.537245 0.343886 1.0 1
-0.512295 0.30467 1.0 1
-0.537072 0.311457 1.0 1
-0.62111 0.296367 1.0 1
-0.513138 0.250376 1.0 1
-0.543444 0.27695 1.0 1
-0.512689 0.348709 1.0 1
-0.528769 0.258527 1.0 1
-0.53746 0.253888 1.0 1
-0.605382 0.278945 1.0 1
-0.525733 0.38916 1.0 1
-0.460598 0.316454 1.0 1
-0.574783 0.278089 1.0 1
-0.522304 0.318064 1.0 1
-0.567105 0.330294 1.0 1
-0.52717 0.229556 1.0 1
-0.514769 0.27413 1.0 1
-0.522965 0.294401 1.0 1
-0.500834 0.229339 1.0 1
-0.54356 0.284202 1.0 1
-0.552253 0.355938 1.0 1
-0.588588 0.328381 1.0 1
-0.487995 0.275952 1.0 1
-0.510196 0.352619 1.0 1
-0.484266 0.33067 1.0 1
-0.521327 0.294092 1.0 1
-0.450458 0.33656 1.0 1
-0.457595 0.258819 1.0 1
-0.533982 0.268037 1.0 1
-0.475234 0.264669 1.0 1
-0.525721 0.330103 1.0 1
-0.532316 0.234235 1.0 1
-0.530276 0.356271 1.0 1
-0.504963 0.289463 1.0 1
-0.518822 0.287627 1.0 1
-0.472775 0.255232 1.0 1
-0.546506 0.287163 1.0 1
-0.606986 0.35027 1.0 1
-0.471839 0.28348 1.0 1
-0.475088 0.279284 1.0 1
-0.536614 0.345272 1.0 1
-0.510784 0.292125 1.0 1
-0.492296 0.305416 1.0 1
-0.455637 0.323929 1.0 1
-0.56061 0.147234 1.0 1
-0.548004 0.333753 1.0 1
-0.507711 0.293098 1.0 1
-0.498186 0.339197 1.0 1
-0.455561 0.245659 1.0 1
-0.491027 0.272575 1.0 1
-0.514909 0.236074 1.0 1
-0.490794 0.317526 1.0 1
-0.465578 0.281141 1.0 1
-0.415454 0.310844 1.0 1
-0.446074 0.3038 1.0 1
-0.482979 0.260479 1.0 1
-0.474815 0.207087 1.0 1
-0.525634 0.348505 1.0 1
-0.554763 0.293444 1.0 1
-0.485461 0.258823 1.0 1
-0.503275 0.290329 1.0 1
-0.500616 0.277803 1.0 1
-0.46279 0.278404 1.0 1
-0.492081 0.293728 1.0 1
-0.458435 0.279799 1.0 1
-0.408889 0.375803 1.0 1
-0.518631 0.299576 1.0 1
-0.40907 0.339679 1.0 1
-0.493449 0.305864 1.0 1
-0.496769 0.233665 1.0 1
-0.467406 0.315354 1.0 1
-0.486861 0.273363 1.0 1
-0.505497 0.301005 1.0 1
-0.514105 0.237381 1.0 1
-0.424094 0.296138 1.0 1
-0.489463 0.321327 1.0 1
-0.447025 0.315559 1.0 1
-0.444809 0.287775 1.0 1
-0.448487 0.253046 1.0 1
-0.425789 0.347614 1.0 1
-0.444281 0.344569 1.0 1
-0.438142 0.298442 1.0 1
-0.522549 0.284927 1.0 1
-0.480024 0.294783 1.0 1
-0.450033 0.263733 1.0 1
-0.421335 0.291618 1.0 1
-0.431561 0.273158 1.0 1
-0.420862 0.290077 1.0 1
-0.482336 0.296497 1.0 1
-0.45242 0.284529 1.0 1
-0.486452 0.254711 1.0 1
-0.482762 0.217971 1.0 1
-0.516127 0.325008 1.0 1
-0.467744 0.252509 1.0 1
-0.44688 0.388272 1.0 1
-0.441258 0.281887 1.0 1
-0.419689 0.30148 1.0 1
-0.352625 0.183972 1.0 1
-0.391654 0.358566 1.0 1
-0.388921 0.29212 1.0 1
-0.404235 0.31962 1.0 1
-0.49158 0.303175 1.0 1
-0.448176 0.252468 1.0 1
-0.431219 0.298242 1.0 1
-0.387526 0.243502 1.0 1
-0.412206 0.269819 1.0 1
-0.45921 0.317208 1.0 1
-0.418654 0.305299 1.0 1
-0.467542 0.171686 1.0 1
-0.34562 0.271806 1.0 1
-0.360581 0.343518 1.0 1
-0.399249 0.263741 1.0 1
-0.311124 0.276729 1.0 1
-0.450396 0.237484 1.0 1
-0.461902 0.256362 1.0 1
-0.377473 0.303109 1.0 1
-0.422574 0.269451 1.0 1
-0.417807 0.346224 1.0 1
-0.365116 0.263105 1.0 1
-0.451263 0.290817 1.0 1
-0.366495 0.307491 1.0 1
-0.351305 0.295369 1.0 1
-0.358498 0.238047 1.0 1
-0.390713 0.266406 1.0 1
-0.356759 0.27607 1.0 1
-0.422247 0.3102 1.0 1
-0.461738 0.219267 1.0 1
-0.382649 0.226855 1.0 1
-0.316787 0.252153 1.0 1
-0.342027 0.351225 1.0 1
-0.3917 0.327093 1.0 1
-0.390751 0.234387 1.0 1
-0.405587 0.214185 1.0 1
-0.308355 0.286414 1.0 1
-0.396517 0.242823 1.0 1
-0.369203 0.240078 1.0 1
-0.424387 0.248182 1.0 1
-0.344952 0.259582 1.0 1
-0.397669 0.273151 1.0 1
-0.349577 0.253092 1.0 1
-0.333497 0.305877 1.0 1
-0.339857 0.246529 1.0 1
-0.425834 0.237568 1.0 1
-0.379498 0.27235 1.0 1
-0.35536 0.241953 1.0 1
-0.413783 0.312504 1.0 1
-0.328401 0.302963 1.0 1
-0.293499 0.302152 1.0 1
-0.296725 0.266737 1.0 1
-0.334191 0.314496 1.0 1
-0.330582 0.238606 1.0 1
-0.356281 0.267287 1.0 1
-0.340043 0.307025 1.0 1
-0.364873 0.332197 1.0 1
-0.36816 0.246214 1.0 1
-0.367058 0.241596 1.0 1
-0.247079 0.287693 1.0 1
-0.383896 0.313268 1.0 1
-0.307541 0.322431 1.0 1
-0.257192 0.312755 1.0 1
-0.280273 0.291788 1.0 1
-0.366052 0.242415 1.0 1
-0.357471 0.273494 1.0 1
-0.35068 0.30598 1.0 1
-0.308489 0.359944 1.0 1
-0.357599 0.311575 1.0 1
-0.33462 0.273916 1.0 1
-0.27821 0.317025 1.0 1
-0.331981 0.261054 1.0 1
-0.362654 0.306093 1.0 1
-0.295772 0.305225 1.0 1
-0.32181 0.288239 1.0 1
-0.282609 0.357783 1.0 1
-0.308595 0.299887 1.0 1
-0.28519 0.295583 1.0 1
-0.300336 0.311613 1.0 1
-0.26733 0.253891 1.0 1
-0.267395 0.222927 1.0 1
-0.316095 0.274928 1.0 1
-0.197847 0.295205 1.0 1
-0.291355 0.283656 1.0 1
-0.209026 0.341278 1.0 1
-0.351218 0.20976 1.0 1
-0.213048 0.272674 1.0 1
-0.302827 0.306251 1.0 1
-0.288555 0.30401 1.0 1
-0.268295 0.270164 1.0 1
-0.30599 0.348526 1.0 1
-0.295822 0.313245 1.0 1
-0.265274 0.25823 1.0 1
-0.252268 0.302668 1.0 1
-0.309703 0.24447 1.0 1
-0.245504 0.281407 1.0 1
-0.232742 0.228593 1.0 1
-0.299049 0.322221 1.0 1
-0.270224 0.313843 1.0 1
-0.143615 0.305215 1.0 1
-0.229923 0.299815 1.0 1
-0.182177 0.242347 1.0 1
-0.231491 0.296748 1.0 1
-0.307946 0.350701 1.0 1
-0.273706 0.315775 1.0 1
-0.260672 0.358182 1.0 1
-0.228578 0.256912 1.0 1
-0.309324 0.295719 1.0 1
-0.20004 0.304893 1.0 1
-0.216725 0.303525 1.0 1
-0.214874 0.330452 1.0 1
-0.250091 0.333452 1.0 1
-0.237181 0.275351 1.0 1
-0.265664 0.371117 1.0 1
-0.230691 0.324475 1.0 1
-0.30173 0.279496 1.0 1
-0.214939 0.370318 1.0 1
-0.242503 0.301248 1.0 1
-0.188116 0.383975 1.0 1
-0.188091 0.392147 1.0 1
-0.242512 0.358786 1.0 1
-0.230047 0.364933 1.0 1
-0.191865 0.381724 1.0 1
-0.241841 0.300108 1.0 1
-0.217728 0.299929 1.0 1
-0.205644 0.307091 1.0 1
-0.243594 0.373509 1.0 1
-0.163427 0.2453 1.0 1
-0.166796 0.286773 1.0 1
-0.136691 0.382648 1.0 1
-0.168144 0.315279 1.0 1
-0.183328 0.292352 1.0 1
-0.18848 0.364363 1.0 1
-0.200736 0.295959 1.0 1
-0.214881 0.29363 1.0 1
-0.150354 0.420312 1.0 1
-0.157177 0.322166 1.0 1
-0.193675 0.31956 1.0 1
-0.192673 0.341131 1.0 1
-0.120625 0.364826 1.0 1
-0.160103 0.355029 1.0 1
-0.242504 0.336352 1.0 1
-0.137046 0.401243 1.0 1
-0.142576 0.324234 1.0 1
-0.216905 0.351826 1.0 1
-0.195309 0.3027 1.0 1
-0.172882 0.341033 1.0 1
-0.242216 0.353451 1.0 1
-0.179521 0.322536 1.0 1
-0.133278 0.395702 1.0 1
-0.187887 0.345036 1.0 1
-0.140359 0.332961 1.0 1
-0.126894 0.368555 1.0 1
-0.168738 0.346028 1.0 1
-0.195099 0.29729 1.0 1
-0.0580944 0.331745 1.0 1
-0.102761 0.375025 1.0 1
-0.159481 0.270675 1.0 1
-0.0498164 0.278016 1.0 1
-0.220485 0.325882 1.0 1
-0.156187 0.287232 1.0 1
-0.118075 0.403564 1.0 1
-0.189667 0.334454 1.0 1
-0.168832 0.335063 1.0 1
-0.17179 0.396054 1.0 1
-0.160713 0.327728 1.0 1
-0.125652 0.353549 1.0 1
-0.140997 0.329534 1.0 1
-0.172004 0.36724 1.0 1
-0.0522637 0.308444 1.0 1
-0.176729 0.389514 1.0 1
-0.125504 0.432254 1.0 1
-0.157238 0.385722 1.0 1
-0.0371805 0.397224 1.0 1
-0.0958136 0.340316 1.0 1
-0.123946 0.343995 1.0 1
-0.0738149 0.397482 1.0 1
-0.101587 0.372611 1.0 1
-0.121843 0.389811 1.0 1
-0.144034 0.388162 1.0 1
-0.130231 0.383214 1.0 1
-0.110423 0.384219 1.0 1
-0.0684857 0.341848 1.0 1
-0.146991 0.391088 1.0 1
-0.139946 0.334886 1.0 1
-0.116593 0.368351 1.0 1
-0.154703 0.378312 1.0 1
-0.0978046 0.412641 1.0 1
-0.155133 0.29325 1.0 1
-0.159833 0.341195 1.0 1
-0.138916 0.310052 1.0 1
-0.172541 0.297155 1.0 1
-0.130423 0.379649 1.0 1
-0.168681 0.409946 1.0 1
-0.110172 0.317886 1.0 1
-0.13941 0.297497 1.0 1
-0.114921 0.395508 1.0 1
-0.129519 0.411922 1.0 1
-0.0735554 0.316768 1.0 1
-0.365682 0.405096 1.0 1
-0.371156 0.44609 1.0 1
-0.264559 0.466468 1.0 1
-0.372584 0.437267 1.0 1
-0.379895 0.473665 1.0 1
-0.38639 0.473652 1.0 1
-0.387545 0.485304 1.0 1
-0.419455 0.400008 1.0 1
-0.373995 0.491223 1.0 1
-0.373412 0.403701 1.0 1
-0.417851 0.349294 1.0 1
-0.404526 0.377155 1.0 1
-0.347516 0.437743 1.0 1
-0.455249 0.363504 1.0 1
-0.372559 0.45121 1.0 1
-0.35949 0.4271 1.0 1
-0.363481 0.428081 1.0 1
-0.35348 0.495307 1.0 1
-0.343852 0.457308 1.0 1
-0.361772 0.396686 1.0 1
-0.341011 0.476589 1.0 1
-0.290304 0.395939 1.0 1
-0.393279 0.389113 1.0 1
-0.406069 0.457774 1.0 1
-0.338989 0.456726 1.0 1
-0.418935 0.433502 1.0 1
-0.407844 0.475729 1.0 1
-0.348902 0.437022 1.0 1
-0.423427 0.44233 1.0 1
-0.350578 0.416668 1.0 1
-0.399668 0.399804 1.0 1
-0.345817 0.375207 1.0 1
-0.366639 0.407856 1.0 1
-0.365947 0.407187 1.0 1
-0.334787 0.378101 1.0 1
-0.370046 0.427704 1.0 1
-0.441448 0.369834 1.0 1
-0.38257 0.515035 1.0 1
-0.369757 0.443205 1.0 1
-0.422627 0.395344 1.0 1
-0.356584 0.429347 1.0 1
-0.387601 0.452342 1.0 1
-0.364036 0.444283 1.0 1
-0.370973 0.467953 1.0 1
-0.414321 0.403619 1.0 1
-0.405981 0.396295 1.0 1
-0.365168 0.377536 1.0 1
-0.448042 0.442984 1.0 1
-0.357649 0.409798 1.0 1
-0.363097 0.450153 1.0 1
-0.412819 0.395615 1.0 1
-0.406375 0.452437 1.0 1
-0.400718 0.370338 1.0 1
-0.407273 0.393006 1.0 1
-0.399989 0.484726 1.0 1
-0.397702 0.42188 1.0 1
-0.399754 0.379148 1.0 1
-0.429151 0.419665 1.0 1
-0.472929 0.380166 1.0 1
-0.443511 0.414148 1.0 1
-0.427386 0.425966 1.0 1
-0.40076 0.389087 1.0 1
-0.440654 0.426059 1.0 1
-0.418359 0.468832 1.0 1
-0.383853 0.418021 1.0 1
-0.377717 0.472245 1.0 1
-0.363822 0.427737 1.0 1
-0.402055 0.398041 1.0 1
-0.38827 0.408438 1.0 1
-0.345216 0.396268 1.0 1
-0.388639 0.385994 1.0 1
-0.40816 0.396264 1.0 1
-0.392184 0.384432 1.0 1
-0.463632 0.520453 1.0 1
-0.423934 0.443766 1.0 1
-0.405081 0.400805 1.0 1
-0.369342 0.390535 1.0 1
-0.420485 0.340968 1.0 1
-0.46834 0.388492 1.0 1
-0.451649 0.44215 1.0 1
-0.403729 0.345955 1.0 1
-0.382718 0.388535 1.0 1
-0.374348 0.369033 1.0 1
-0.402908 0.407623 1.0 1
-0.40247 0.361054 1.0 1
-0.431498 0.368562 1.0 1
-0.433749 0.420058 1.0 1
-0.363703 0.378817 1.0 1
-0.424707 0.363088 1.0 1
-0.45744 0.379308 1.0 1
-0.48058 0.326167 1.0 1
-0.465468 0.389526 1.0 1
-0.429832 0.382321 1.0 1
-0.476189 0.356867 1.0 1
-0.382407 0.388791 1.0 1
-0.530375 0.333625 1.0 1
-0.420941 0.42293 1.0 1
-0.41928 0.398331 1.0 1
-0.439485 0.36146 1.0 1
-0.475523 0.395692 1.0 1
-0.407795 0.396003 1.0 1
-0.45122 0.35802 1.0 1
-0.434564 0.317944 1.0 1
-0.447127 0.345516 1.0 1
-0.427873 0.422701 1.0 1
-0.451957 0.360657 1.0 1
-0.350981 0.377024 1.0 1
-0.452245 0.342642 1.0 1
-0.455342 0.411167 1.0 1
-0.434786 0.337799 1.0 1
-0.425585 0.3109 1.0 1
-0.440304 0.37811 1.0 1
-0.473532 0.371884 1.0 1
-0.509527 0.320173 1.0 1
-0.455103 0.362963 1.0 1
-0.443355 0.319508 1.0 1
-0.425986 0.344697 1.0 1
-0.414202 0.36694 1.0 1
-0.424735 0.357907 1.0 1
-0.388283 0.275524 1.0 1
-0.434761 0.279609 1.0 1
-0.513639 0.421646 1.0 1
-0.419122 0.377505 1.0 1
-0.404846 0.353161 1.0 1
-0.428057 0.310709 1.0 1
-0.476839 0.370408 1.0 1
-0.442634 0.331852 1.0 1
-0.492035 0.319197 1.0 1
-0.44047 0.393438 1.0 1
-0.463392 0.345139 1.0 1
-0.408783 0.361205 1.0 1
-0.452193 0.382948 1.0 1
-0.406429 0.341609 1.0 1
-0.412744 0.314464 1.0 1
-0.43668 0.313896 1.0 1
-0.481202 0.350318 1.0 1
-0.428452 0.261334 1.0 1
-0.459269 0.358403 1.0 1
-0.380997 0.252655 1.0 1
-0.488027 0.331724 1.0 1
-0.436312 0.289312 1.0 1
-0.471461 0.345014 1.0 1
-0.439203 0.275963 1.0 1
-0.534098 0.283117 1.0 1
-0.454496 0.344237 1.0 1
-0.450548 0.326642 1.0 1
-0.449223 0.326101 1.0 1
-0.460052 0.222302 1.0 1
-0.413204 0.350307 1.0 1
-0.462932 0.251281 1.0 1
-0.452911 0.234559 1.0 1
-0.492309 0.260484 1.0 1
-0.485576 0.266487 1.0 1
-0.386729 0.289775 1.0 1
-0.495401 0.333356 1.0 1
-0.464009 0.284794 1.0 1
-0.466673 0.256998 1.0 1
-0.471387 0.215248 1.0 1
-0.482898 0.315852 1.0 1
-0.486442 0.249937 1.0 1
-0.426582 0.274405 1.0 1
-0.511057 0.222484 1.0 1
-0.492584 0.297644 1.0 1
-0.43057 0.260013 1.0 1
-0.485378 0.199213 1.0 1
-0.402185 0.289624 1.0 1
-0.446465 0.294657 1.0 1
-0.482242 0.334313 1.0 1
-0.39132 0.279935 1.0 1
-0.367238 0.218858 1.0 1
-0.525987 0.297466 1.0 1
-0.510484 0.246729 1.0 1
-0.530676 0.287074 1.0 1
-0.554644 0.210572 1.0 1
-0.499442 0.243999 1.0 1
-0.432512 0.228746 1.0 1
-0.430967 0.30022 1.0 1
-0.44529 0.236519 1.0 1
-0.441565 0.21269 1.0 1
-0.479052 0.228497 1.0 1
-0.500061 0.236598 1.0 1
-0.448693 0.215736 1.0 1
-0.460058 0.215813 1.0 1
-0.456378 0.279883 1.0 1
-0.468058 0.187667 1.0 1
-0.500774 0.246268 1.0 1
-0.484017 0.246136 1.0 1
-0.502694 0.218605 1.0 1
-0.455369 0.266364 1.0 1
-0.46653 0.256887 1.0 1
-0.471911 0.200686 1.0 1
-0.513884 0.228605 1.0 1
-0.482737 0.209202 1.0 1
-0.414493 0.167466 1.0 1
-0.476119 0.158467 1.0 1
-0.421223 0.213516 1.0 1
-0.489073 0.124567 1.0 1
-0.45606 0.164699 1.0 1
-0.439475 0.131315 1.0 1
-0.382184 0.199752 1.0 1
-0.478508 0.101662 1.0 1
-0.458925 0.157124 1.0 1
-0.512343 0.127185 1.0 1
-0.497513 0.175357 1.0 1
-0.457088 0.105261 1.0 1
-0.45866 0.155569 1.0 1
-0.490235 0.185498 1.0 1
-0.461913 0.174009 1.0 1
-0.487253 0.206402 1.0 1
-0.516462 0.106763 1.0 1
-0.435683 0.0465859 1.0 1
-0.473548 0.101806 1.0 1
-0.51905 0.0995909 1.0 1
-0.492196 0.100826 1.0 1
-0.46264 0.117549 1.0 1
-0.411711 0.124209 1.0 1
-0.468154 0.102111 1.0 1
-0.504434 0.0882984 1.0 1
-0.420491 0.0963331 1.0 1
-0.41813 0.0706379 1.0 1
-0.509846 0.0347354 1.0 1
-0.471421 0.0562619 1.0 1
-0.414484 0.067647 1.0 1
-0.448368 0.0467599 1.0 1
-0.423239 0.0295909 1.0 1
-0.433439 0.020047 1.0 1
-0.438567 0.0447713 1.0 1
-0.419163 0.0733996 1.0 1
-0.402849 0.022748 1.0 1
-0.448337 0.0186623 1.0 1
-0.538137 0.0173377 1.0 1
-0.375299 0.0591028 1.0 1
-0.406547 0.0603603 1.0 1
-0.407259 0.0171751 1.0 1
-0.446427 0.0450299 1.0 1
-0.405405 0.0230269 1.0 1
-0.447299 -0.0176447 1.0 1
-0.389558 0.0198951 1.0 1
-0.476833 0.0594984 1.0 1
-0.428585 -0.00187227 1.0 1
-0.460092 -0.0314206 1.0 1
-0.451956 0.0755922 1.0 1
-0.418636 -0.0177764 1.0 1
-0.432423 -0.0378016 1.0 1
-0.425306 -0.0192911 1.0 1
-0.399409 0.00329989 1.0 1
-0.432972 -0.00051491 1.0 1
-0.435132 0.0766463 1.0 1
-0.432651 -0.0124186 1.0 1
-0.43614 0.0136878 1.0 1
-0.415433 -0.0377339 1.0 1
-0.468858 -0.0896322 1.0 1
-0.454239 0.00802835 1.0 1
-0.437446 -0.00515223 1.0 1
-0.414755 -0.0783689 1.0 1
-0.386066 -0.00306481 1.0 1
-0.479514 0.0231189 1.0 1
-0.409045 -0.0326419 1.0 1
-0.382092 -0.0934067 1.0 1
-0.416137 0.0133996 1.0 1
-0.485012 -0.00989714 1.0 1
-0.405728 0.00153991 1.0 1
-0.434756 -0.082821 1.0 1
-0.493594 0.00462489 1.0 1
-0.435422 -0.0611806 1.0 1
-0.479789 -0.0888475 1.0 1
-0.35165 -0.0218145 1.0 1
-0.461587 -0.0196111 1.0 1
-0.432482 -0.0294488 1.0 1
-0.434579 -0.00991478 1.0 1
-0.381619 -0.0301861 1.0 1
-0.453977 -0.064403 1.0 1
-0.419891 -0.0527296 1.0 1
-0.467709 -0.0318396 1.0 1
-0.431727 -0.0764299 1.0 1
-0.459359 0.0251312 1.0 1
-0.402721 -0.0966961 1.0 1
-0.425442 -0.0110926 1.0 1
-0.436518 -0.0801365 1.0 1
-0.403637 -0.103382 1.0 1
-0.372343 -0.104041 1.0 1
-0.411203 0.0138985 1.0 1
-0.398098 0.0131035 1.0 1
-0.393037 -0.0926093 1.0 1
-0.400984 -0.0865949 1.0 1
-0.401319 -0.114381 1.0 1
-0.425566 -0.0972547 1.0 1
-0.426847 -0.0861966 1.0 1
-0.405398 -0.138673 1.0 1
-0.385439 -0.0875462 1.0 1
-0.349796 -0.0602933 1.0 1
-0.456622 -0.0753134 1.0 1
-0.401522 -0.105625 1.0 1
-0.37894 -0.151788 1.0 1
-0.390814 -0.0924074 1.0 1
-0.380324 -0.0850406 1.0 1
-0.346982 -0.117363 1.0 1
-0.398404 -0.0594888 1.0 1
-0.385223 -0.0642631 1.0 1
-0.424507 -0.11852 1.0 1
-0.364183 -0.122502 1.0 1
-0.324185 -0.130057 1.0 1
-0.387966 -0.116328 1.0 1
-0.378143 -0.144411 1.0 1
-0.368187 -0.128506 1.0 1
-0.352675 -0.112283 1.0 1
-0.343749 -0.117671 1.0 1
-0.364289 -0.0730604 1.0 1
-0.389897 -0.0818926 1.0 1
-0.35771 -0.0840049 1.0 1
-0.428122 -0.0469851 1.0 1
-0.302677 -0.1117 1.0 1
-0.294402 -0.0943897 1.0 1
-0.36204 -0.11601 1.0 1
-0.351156 -0.113447 1.0 1
-0.381641 -0.111232 1.0 1
-0.402057 -0.164108 1.0 1
-0.440574 -0.0564949 1.0 1
-0.396258 -0.0877468 1.0 1
-0.406127 -0.133683 1.0 1
-0.406123 -0.0759355 1.0 1
-0.407806 -0.0582465 1.0 1
-0.336124 -0.0700688 1.0 1
-0.320131 -0.122076 1.0 1
-0.418245 -0.0628592 1.0 1
-0.364089 -0.135994 1.0 1
-0.37 -0.147895 1.0 1
-0.296172 -0.0644105 1.0 1
-0.388801 -0.13876 1.0 1
-0.348755 -0.141034 1.0 1
-0.362706 -0.097442 1.0 1
-0.380301 -0.168496 1.0 1
-0.389994 -0.0710531 1.0 1
-0.384151 -0.0911451 1.0 1
-0.320966 -0.0422567 1.0 1
-0.31253 -0.100039 1.0 1
-0.326911 -0.107176 1.0 1
-0.410779 -0.0977329 1.0 1
-0.390073 -0.0936586 1.0 1
-0.407367 -0.144817 1.0 1
-0.351603 -0.171026 1.0 1
-0.314259 -0.104043 1.0 1
-0.441273 -0.146065 1.0 1
-0.398524 -0.103219 1.0 1
-0.393948 -0.0692261 1.0 1
-0.292655 -0.110776 1.0 1
-0.270321 -0.158296 1.0 1
-0.404467 -0.130055 1.0 1
-0.313411 -0.12682 1.0 1
-0.383004 -0.181102 1.0 1
-0.337962 -0.126545 1.0 1
-0.306398 -0.0822081 1.0 1
-0.382108 -0.100758 1.0 1
-0.280688 -0.0756671 1.0 1
-0.365714 -0.182763 1.0 1
-0.344767 -0.159036 1.0 1
-0.288174 -0.151604 1.0 1
-0.291554 -0.144111 1.0 1
-0.367668 -0.171857 1.0 1
-0.375837 -0.110351 1.0 1
-0.324169 -0.227312 1.0 1
-0.340767 -0.0723041 1.0 1
-0.35766 -0.14431 1.0 1
-0.382822 -0.200482 1.0 1
-0.311632 -0.0787072 1.0 1
-0.344085 -0.105454 1.0 1
-0.328635 -0.158644 1.0 1
-0.289152 -0.115275 1.0 1
-0.368256 -0.145193 1.0 1
-0.330448 -0.121503 1.0 1
-0.209368 0.0522779 1.0 1
-0.192641 0.0993134 1.0 1
-0.197453 0.0565188 1.0 1
-0.191254 0.0633005 1.0 1
-0.153915 -0.0355792 1.0 1
-0.20145 -0.0225249 1.0 1
-0.209751 0.0130752 1.0 1
-0.142608 0.0480258 1.0 1
-0.138604 0.0699414 1.0 1
-0.208876 0.0146189 1.0 1
-0.151013 -0.00517066 1.0 1
-0.201478 0.0582753 1.0 1
-0.123156 0.111207 1.0 1
-0.236139 0.0374615 1.0 1
-0.202616 0.0744721 1.0 1
-0.261172 -0.0251558 1.0 1
-0.168977 0.0327619 1.0 1
-0.139413 0.0592942 1.0 1
-0.167842 0.100269 1.0 1
-0.224284 -0.0211104 1.0 1
-0.27655 0.0391609 1.0 1
-0.23042 0.0482317 1.0 1
-0.146132 0.0355748 1.0 1
-0.142421 0.0462059 1.0 1
-0.228147 0.0275383 1.0 1
-0.150018 0.0203433 1.0 1
-0.223097 0.0259318 1.0 1
-0.196337 0.0150075 1.0 1
-0.172073 0.0727046 1.0 1
-0.198407 0.0771187 1.0 1
-0.136748 0.0836389 1.0 1
-0.201042 0.0248769 1.0 1
-0.147321 0.0473018 1.0 1
-0.21794 0.010758 1.0 1
-0.177814 -0.05611 1.0 1
-0.23123 0.09467 1.0 1
-0.194289 0.0441434 1.0 1
-0.190927 0.0438068 1.0 1
-0.178799 0.0309574 1.0 1
-0.177857 0.0623031 1.0 1
-0.196487 -0.0550872 1.0 1
-0.187645 0.0149898 1.0 1
-0.242399 0.0360635 1.0 1
-0.151034 0.0474917 1.0 1
-0.179516 0.0292364 1.0 1
-0.201903 -0.00492552 1.0 1
-0.210732 -0.00339742 1.0 1
-0.168609 -0.00819923 1.0 1
-0.211082 0.0250426 1.0 1
-0.179517 -0.00178832 1.0 1
-0.20056 0.0139793 1.0 1
-0.226665 0.0484314 1.0 1
-0.19526 0.0300232 1.0 1
-0.220972 0.036667 1.0 1
-0.271812 -0.0378297 1.0 1
-0.153371 0.0079202 1.0 1
-0.179386 0.00705505 1.0 1
-0.273738 0.0381947 1.0 1
-0.164497 0.0582881 1.0 1
-0.17756 -0.0274479 1.0 1
-0.130018 -0.0350944 1.0 1
-0.255795 -0.0350396 1.0 1
-0.193967 0.0610595 1.0 1
-0.21203 -0.0530921 1.0 1
-0.174884 0.0071959 1.0 1
-0.162162 -0.0176741 1.0 1
-0.249125 -0.103132 1.0 1
-0.18446 0.0599282 1.0 1
-0.260039 -0.0118578 1.0 1
-0.227815 -0.0644617 1.0 1
-0.206338 -0.00571488 1.0 1
-0.223638 0.010863 1.0 1
-0.251648 -0.0074607 1.0 1
-0.275948 0.00242252 1.0 1
-0.259104 -0.0475414 1.0 1
-0.225442 -0.0253981 1.0 1
-0.239703 -0.0117707 1.0 1
-0.225657 0.00231739 1.0 1
-0.182073 -0.0609633 1.0 1
-0.165717 -0.00551823 1.0 1
-0.236763 -0.0730231 1.0 1
-0.235302 -0.00407797 1.0 1
-0.167166 -0.0293868 1.0 1
-0.172927 -0.0844399 1.0 1
-0.253314 0.00386709 1.0 1
-0.231169 -0.108631 1.0 1
-0.215036 -0.0531037 1.0 1
-0.134242 -0.0785754 1.0 1
-0.244775 -0.0485027 1.0 1
-0.207154 -0.0551285 1.0 1
-0.191277 -0.0401668 1.0 1
-0.199102 -0.0781981 1.0 1
-0.211042 -0.0592168 1.0 1
-0.253164 -0.0642924 1.0 1
-0.252645 -0.0829004 1.0 1
-0.237346 -0.0649387 1.0 1
-0.256353 -0.015445 1.0 1
-0.245573 -0.0971885 1.0 1
-0.234733 -0.0682684 1.0 1
-0.314117 -0.0583303 1.0 1
-0.245493 -0.0187338 1.0 1
-0.201955 -0.046354 1.0 1
-0.290319 -0.0608702 1.0 1
-0.293828 -0.08807 1.0 1
-0.243757 -0.0278249 1.0 1
-0.216632 -0.090344 1.0 1
-0.298579 -0.0464876 1.0 1
-0.25122 -0.0667022 1.0 1
-0.246052 -0.0257791 1.0 1
-0.200997 -0.0689752 1.0 1
-0.249205 -0.0730974 1.0 1
-0.265068 -0.0775623 1.0 1
-0.26789 -0.0927677 1.0 1
-0.249089 -0.118932 1.0 1
-0.311217 -0.0931842 1.0 1
-0.259564 -0.0215376 1.0 1
-0.241684 -0.0363765 1.0 1
-0.264337 -0.0792004 1.0 1
-0.296566 -0.0995225 1.0 1
-0.243172 -0.0740914 1.0 1
-0.314596 -0.00669404 1.0 1
-0.309658 -0.0256335 1.0 1
-0.280725 -0.076011 1.0 1
-0.25437 -0.00788103 1.0 1
-0.239306 -0.0796974 1.0 1
-0.307488 -0.158515 1.0 1
-0.272008 0.00839806 1.0 1
-0.276188 -0.00758822 1.0 1
-0.234916 -0.117032 1.0 1
-0.281284 -0.0858195 1.0 1
-0.261103 -0.0318709 1.0 1
-0.230833 -0.0837309 1.0 1
-0.307135 -0.0912828 1.0 1
-0.271152 -0.128416 1.0 1
-0.250526 -0.064804 1.0 1
-0.311273 -0.108275 1.0 1
-0.3348 -0.0753668 1.0 1
-0.344623 -0.0584146 1.0 1
-0.306264 -0.126199 1.0 1
-0.277302 -0.142214 1.0 1
-0.286062 -0.106819 1.0 1
-0.223712 -0.137796 1.0 1
-0.306861 -0.121199 1.0 1
-0.303514 -0.12647 1.0 1
-0.325378 -0.103852 1.0 1
-0.206455 -0.109333 1.0 1
-0.374533 -0.11784 1.0 1
-0.3437 -0.0575767 1.0 1
-0.339117 -0.0374693 1.0 1
-0.399178 -0.0658116 1.0 1
-0.318508 -0.0707241 1.0 1
-0.278254 -0.0999963 1.0 1
-0.304209 -0.0715768 1.0 1
-0.325563 -0.132858 1.0 1
-0.373731 -0.076175 1.0 1
-0.263401 -0.151709 1.0 1
-0.294054 -0.102029 1.0 1
-0.267508 -0.052557 1.0 1
-0.337464 -0.00772057 1.0 1
-0.234195 -0.150404 1.0 1
-0.393833 -0.112849 1.0 1
-0.363144 -0.106945 1.0 1
-0.308096 -0.121099 1.0 1
-0.313684 -0.0614509 1.0 1
-0.22739 -0.0672368 1.0 1
-0.357766 -0.106752 1.0 1
-0.361367 -0.111587 1.0 1
-0.300856 -0.148308 1.0 1
-0.334381 -0.0958821 1.0 1
-0.354024 -0.110676 1.0 1
-0.244792 -0.12516 1.0 1
-0.295349 -0.0411509 1.0 1
-0.27952 -0.109803 1.0 1
-0.371152 -0.0635121 1.0 1
-0.382087 -0.0634168 1.0 1
-0.294317 -0.0875755 1.0 1
-0.41144 -0.174284 1.0 1
-0.362907 -0.0740512 1.0 1
-0.300804 -0.125949 1.0 1
-0.367848 -0.0886961 1.0 1
-0.416668 -0.0742198 1.0 1
-0.372874 -0.0421597 1.0 1
-0.334749 -0.0586903 1.0 1
-0.35551 -0.116542 1.0 1
-0.2953 -0.15651 1.0 1
-0.312668 -0.0803162 1.0 1
-0.340122 -0.0880383 1.0 1
-0.401358 -0.0709403 1.0 1
-0.382263 -0.0624151 1.0 1
-0.333191 -0.105954 1.0 1
-0.337404 -0.117837 1.0 1
-0.404813 -0.0767716 1.0 1
-0.373688 -0.151205 1.0 1
-0.369723 -0.129277 1.0 1
-0.396322 -0.0667413 1.0 1
-0.330128 -0.140283 1.0 1
-0.406283 -0.13351 1.0 1
-0.327055 -0.152467 1.0 1
-0.34683 -0.139697 1.0 1
-0.345575 -0.106869 1.0 1
-0.345323 -0.00232413 1.0 1
-0.380323 -0.145299 1.0 1
-0.449263 -0.135386 1.0 1
-0.362205 -0.119494 1.0 1
-0.369268 -0.170527 1.0 1
-0.401078 -0.106697 1.0 1
-0.41301 -0.11108 1.0 1
-0.390452 -0.105184 1.0 1
-0.368969 -0.0331193 1.0 1
-0.389932 -0.0682894 1.0 1
-0.382186 -0.156604 1.0 1
-0.37603 -0.0653624 1.0 1
-0.400477 -0.153015 1.0 1
-0.466621 -0.0670292 1.0 1
-0.439526 -0.109313 1.0 1
-0.408722 -0.126998 1.0 1
-0.409413 -0.163044 1.0 1
-0.363017 -0.117147 1.0 1
-0.372327 -0.119513 1.0 1
-0.415505 -0.0596266 1.0 1
-0.458997 -0.197822 1.0 1
-0.435281 -0.157941 1.0 1
-0.492824 -0.132544 1.0 1
-0.470986 -0.165191 1.0 1
-0.499656 -0.0877125 1.0 1
-0.414857 -0.0774293 1.0 1
-0.490719 -0.105155 1.0 1
-0.47454 -0.0808353 1.0 1
-0.477889 -0.101542 1.0 1
-0.434633 -0.128318 1.0 1
-0.442181 -0.151515 1.0 1
-0.529363 -0.0488335 1.0 1
-0.501765 -0.0825495 1.0 1
-0.499381 -0.119998 1.0 1
-0.473362 -0.101946 1.0 1
-0.491529 -0.14966 1.0 1
-0.499869 -0.116827 1.0 1
-0.483024 -0.10309 1.0 1
-0.467122 -0.0659295 1.0 1
-0.54114 -0.133619 1.0 1
-0.524408 -0.102613 1.0 1
-0.522934 -0.110493 1.0 1
-0.505755 -0.132128 1.0 1
-0.539489 -0.0659416 1.0 1
-0.471547 -0.169021 1.0 1
-0.473686 -0.14269 1.0 1
-0.472119 -0.121861 1.0 1
-0.440551 -0.0627372 1.0 1
-0.517952 -0.137266 1.0 1
-0.490668 -0.0880496 1.0 1
-0.530981 -0.0915027 1.0 1
-0.518791 -0.104664 1.0 1
-0.559506 -0.0856627 1.0 1
-0.516892 -0.0437886 1.0 1
-0.524886 -0.189913 1.0 1
-0.558709 -0.113665 1.0 1
-0.574467 -0.036284 1.0 1
-0.569658 -0.0266526 1.0 1
-0.504708 -0.0793605 1.0 1
-0.573264 -0.0300453 1.0 1
-0.588893 -0.0614586 1.0 1
-0.528967 -0.11572 1.0 1
-0.479749 -0.0669801 1.0 1
-0.496163 -0.100467 1.0 1
-0.573925 -0.0752531 1.0 1
-0.544424 -0.0676338 1.0 1
-0.567777 -0.122345 1.0 1
-0.593892 -0.138822 1.0 1
-0.532301 -0.0626111 1.0 1
-0.532384 -0.12014 1.0 1
-0.572656 -0.0400066 1.0 1
-0.555102 -0.0749186 1.0 1
-0.56074 -0.0462194 1.0 1
-0.481143 -0.0894326 1.0 1
-0.568416 -0.065836 1.0 1
-0.605136 -0.1094 1.0 1
-0.593325 -0.0504382 1.0 1
-0.559091 -0.0600859 1.0 1
-0.580253 -0.0780683 1.0 1
-0.582278 -0.0914631 1.0 1
-0.576567 -0.14463 1.0 1
-0.550765 -0.0860701 1.0 1
-0.546547 -0.123906 1.0 1
-0.550937 -0.0458113 1.0 1
-0.549844 -0.0326418 1.0 1
-0.555697 -0.0632508 1.0 1
-0.525779 -0.0327639 1.0 1
-0.534413 -0.0171098 1.0 1
-0.522733 -0.0985755 1.0 1
-0.592529 -0.0187038 1.0 1
-0.537955 -0.047341 1.0 1
-0.576526 -0.0721707 1.0 1
-0.606855 -0.0218095 1.0 1
-0.566229 -0.0397624 1.0 1
-0.595564 -0.0814958 1.0 1
-0.601801 -0.0656241 1.0 1
-0.602768 -0.0171945 1.0 1
-0.577513 -0.0474792 1.0 1
-0.618982 -0.0664926 1.0 1
-0.527931 -0.0483019 1.0 1
-0.542752 -0.00703484 1.0 1
-0.559785 -0.106887 1.0 1
-0.643591 -0.0979796 1.0 1
-0.593215 -0.0265348 1.0 1
-0.551954 -0.0420341 1.0 1
-0.554566 -0.0664401 1.0 1
-0.559768 -0.0709246 1.0 1
-0.600377 -0.0488875 1.0 1
-0.542555 -0.0623697 1.0 1
-0.576288 -0.0293747 1.0 1
-0.513068 -0.0118446 1.0 1
-0.543209 0.00473946 1.0 1
-0.553263 -0.0332993 1.0 1
-0.591123 -0.0532098 1.0 1
-0.608014 0.00710324 1.0 1
-0.505868 -0.0841077 1.0 1
-0.569284 -0.00465499 1.0 1
-0.562176 0.0404391 1.0 1
-0.632909 -0.00867248 1.0 1
-0.513395 -0.0332198 1.0 1
-0.604769 -0.0807848 1.0 1
-0.541065 -0.00360475 1.0 1
-0.626713 0.051022 1.0 1
-0.515878 0.078367 1.0 1
-0.564495 -0.0468578 1.0 1
-0.588208 -0.0113433 1.0 1
-0.606976 0.0577023 1.0 1
-0.630328 -0.0458814 1.0 1
-0.627698 0.0564872 1.0 1
-0.602149 0.0820591 1.0 1
-0.538455 0.0111221 1.0 1
-0.608481 -0.0737134 1.0 1
-0.568264 0.0383833 1.0 1
-0.554699 -0.0238193 1.0 1
-0.566254 0.0453259 1.0 1
-0.499056 -0.0786234 1.0 1
-0.58923 -0.0297305 1.0 1
-0.588588 0.0300146 1.0 1
-0.611598 0.0187715 1.0 1
-0.53835 0.0431022 1.0 1
-0.594632 -0.0491654 1.0 1
-0.541742 0.0353253 1.0 1
-0.5096 -0.000479914 1.0 1
-0.588335 0.0978714 1.0 1
-0.63563 0.0321695 1.0 1
-0.555741 0.0173844 1.0 1
-0.566265 -0.0371529 1.0 1
-0.580121 0.0635847 1.0 1
-0.612786 0.019826 1.0 1
-0.54226 0.0300157 1.0 1
-0.578595 0.0250009 1.0 1
-0.56408 0.0838266 1.0 1
-0.504855 -0.0122687 1.0 1
-0.567488 -0.00949163 1.0 1
-0.613516 0.0532747 1.0 1
-0.5265 0.0906166 1.0 1
-0.536832 0.107702 1.0 1
-0.636928 0.0438914 1.0 1
-0.568874 0.0172961 1.0 1
-0.547494 0.0279659 1.0 1
-0.552595 0.0780732 1.0 1
-0.598652 0.0128527 1.0 1
-0.485052 0.025148 1.0 1
-0.496711 0.00505915 1.0 1
-0.564829 0.01829 1.0 1
-0.569004 0.0621225 1.0 1
-0.582378 0.0160187 1.0 1
-0.585759 0.0234397 1.0 1
-0.655841 0.0756194 1.0 1
-0.533572 0.0343527 1.0 1
-0.547704 0.0287105 1.0 1
-0.536514 0.0455226 1.0 1
-0.56281 0.0598787 1.0 1
-0.501387 -0.0409408 1.0 1
-0.533105 0.034882 1.0 1
-0.561082 -0.0274908 1.0 1
-0.533283 0.0343962 1.0 1
-0.518539 0.0111187 1.0 1
-0.49605 0.0402146 1.0 1
-0.529419 0.150776 1.0 1
-0.557234 0.0895045 1.0 1
-0.483085 0.0445342 1.0 1
-0.562401 -0.00249834 1.0 1
-0.529007 0.102275 1.0 1
-0.547301 0.0161649 1.0 1
-0.593172 -0.0117351 1.0 1
-0.549327 0.0865862 1.0 1
-0.511083 0.0338176 1.0 1
-0.508553 0.0106303 1.0 1
-0.527826 0.0255222 1.0 1
-0.447373 0.119949 1.0 1
-0.529823 0.0468457 1.0 1
-0.477134 0.0508645 1.0 1
-0.527795 0.0635421 1.0 1
-0.551853 0.0553704 1.0 1
-0.476877 -0.0101572 1.0 1
-0.506486 0.0146786 1.0 1
-0.512842 0.084053 1.0 1
-0.59359 -0.0326941 1.0 1
-0.537851 0.0826919 1.0 1
-0.520369 0.0855076 1.0 1
-0.455004 0.0940098 1.0 1
-0.473041 0.0580668 1.0 1
-0.492616 -0.0132578 1.0 1
-0.419966 0.00433416 1.0 1
-0.494368 0.0377297 1.0 1
-0.554177 -0.0143905 1.0 1
-0.559247 0.0457053 1.0 1
-0.495953 0.106488 1.0 1
-0.490771 -0.0138602 1.0 1
-0.479101 -0.0237987 1.0 1
-0.463891 0.063817 1.0 1
-0.539884 0.0463234 1.0 1
-0.544935 0.0163618 1.0 1
-0.46768 0.0648191 1.0 1
-0.380225 0.0959937 1.0 1
-0.465197 0.00874764 1.0 1
-0.530321 -0.0104958 1.0 1
-0.427254 0.0403389 1.0 1
-0.478166 0.0438063 1.0 1
-0.40112 0.0467586 1.0 1
-0.429866 0.0451935 1.0 1
-0.475725 -0.0233515 1.0 1
-0.348338 0.0938687 1.0 1
-0.480628 0.0587378 1.0 1
-0.407146 0.0325843 1.0 1
-0.408529 0.00976622 1.0 1
-0.377255 0.0171306 1.0 1
-0.472366 -0.0453752 1.0 1
-0.506026 -0.0101752 1.0 1
-0.437938 0.00345828 1.0 1
-0.49923 0.0362691 1.0 1
-0.430882 0.0567055 1.0 1
-0.423265 0.0455459 1.0 1
-0.467044 -0.0149772 1.0 1
-0.449587 0.035943 1.0 1
-0.409905 0.0142791 1.0 1
-0.515107 -0.020404 1.0 1
-0.438828 0.0277755 1.0 1
-0.471218 0.120595 1.0 1
-0.430767 0.0209396 1.0 1
-0.445502 0.0864686 1.0 1
-0.315854 -0.0384168 1.0 1
-0.468097 0.0765174 1.0 1
-0.458433 -0.0266914 1.0 1
-0.459902 0.0069779 1.0 1
-0.412954 0.0139236 1.0 1
-0.367951 0.0252555 1.0 1
-0.446733 0.046067 1.0 1
-0.350898 0.000716347 1.0 1
-0.400235 -0.0209973 1.0 1
-0.454181 0.0481021 1.0 1
-0.443431 -0.00303329 1.0 1
-0.359882 -0.0079788 1.0 1
-0.383772 0.0170834 1.0 1
-0.384407 0.01517 1.0 1
-0.360643 -0.0120585 1.0 1
-0.348576 -0.00982881 1.0 1
-0.378159 0.0178012 1.0 1
-0.357468 0.000736276 1.0 1
-0.366297 0.00721742 1.0 1
-0.361818 -0.0500699 1.0 1
-0.362047 0.018481 1.0 1
-0.360374 0.00216303 1.0 1
-0.312228 -0.0362386 1.0 1
-0.335816 0.0321095 1.0 1
-0.395043 -0.066005 1.0 1
-0.310882 0.0238978 1.0 1
-0.365782 0.0115319 1.0 1
-0.464773 -0.0113662 1.0 1
-0.363606 -0.021338 1.0 1
-0.231931 -0.0110665 1.0 1
-0.334904 -0.0452869 1.0 1
-0.359015 -0.00387893 1.0 1
-0.298776 0.0648753 1.0 1
-0.310874 -0.0121869 1.0 1
-0.309331 -0.00753402 1.0 1
-0.305326 0.0305566 1.0 1
-0.277871 -0.0533652 1.0 1
-0.326718 -0.0251752 1.0 1
-0.28501 -0.0671092 1.0 1
-0.192535 -0.0669929 1.0 1
-0.200179 -0.134576 1.0 1
-0.333487 0.0230333 1.0 1
-0.20935 -0.0193871 1.0 1
-0.303659 -0.0185224 1.0 1
-0.234182 -0.0191738 1.0 1
-0.280416 -0.0568453 1.0 1
-0.235302 -0.054065 1.0 1
-0.179354 -0.0497236 1.0 1
-0.236097 -0.0531856 1.0 1
-0.286648 -0.14555 1.0 1
-0.188555 -0.0777911 1.0 1
-0.199988 -0.0746508 1.0 1
-0.212716 -0.0430468 1.0 1
-0.201255 -0.0339839 1.0 1
-0.178983 -0.104058 1.0 1
-0.245674 -0.069437 1.0 1
-0.243022 -0.0308123 1.0 1
-0.180791 -0.133638 1.0 1
-0.21873 -0.0873805 1.0 1
-0.171367 -0.109466 1.0 1
-0.0798529 -0.095021 1.0 1
-0.117495 -0.131493 1.0 1
-0.16595 -0.13999 1.0 1
-0.117521 -0.0873751 1.0 1
-0.164494 -0.0481516 1.0 1
-0.178428 -0.0768152 1.0 1
-0.192444 -0.0718538 1.0 1
-0.151531 -0.104619 1.0 1
-0.159289 -0.116159 1.0 1
-0.113338 -0.0997039 1.0 1
-0.103573 -0.115787 1.0 1
-0.0431955 -0.148657 1.0 1
-0.0887099 -0.0725282 1.0 1
-0.155507 -0.117966 1.0 1
-0.157947 -0.121328 1.0 1
-0.127751 -0.125575 1.0 1
-0.0792354 -0.100692 1.0 1
-0.122856 -0.128139 1.0 1
-0.0673723 -0.151523 1.0 1
-0.119726 -0.14376 1.0 1
-0.0749146 -0.0762773 1.0 1
-0.142418 -0.157094 1.0 1
-0.0694879 -0.106656 1.0 1
-0.0412887 -0.0987178 1.0 1
-0.154581 -0.177555 1.0 1
-0.0932818 -0.12183 1.0 1
-0.0324154 -0.131997 1.0 1
-0.114632 -0.0842755 1.0 1
-0.0534818 -0.155544 1.0 1
-0.120277 -0.148526 1.0 1
-0.00103017 -0.110007 1.0 1
-0.0868303 -0.125607 1.0 1
-0.0908898 -0.092325 1.0 1
-0.0790484 -0.174576 1.0 1
-0.0724017 -0.121447 1.0 1
-0.104974 -0.196029 1.0 1
-0.0580104 -0.159708 1.0 1
0.00237107 -0.140252 1.0 1
-0.0295005 -0.173229 1.0 1
-0.108252 -0.116849 1.0 1
-0.0520063 -0.124504 1.0 1
-0.0809778 -0.0746171 1.0 1
-0.130701 -0.100713 1.0 1
-0.0630345 -0.191177 1.0 1
-0.0501001 -0.169744 1.0 1
-0.0717694 -0.137835 1.0 1
-0.0438047 -0.110466 1.0 1
-0.0775243 -0.128898 1.0 1
-0.863602 0.251006 1.0 2
-0.886228 0.194147 1.0 2
-0.872229 0.227043 1.0 2
-0.816869 0.228839 1.0 2
-0.836168 0.222202 1.0 2
-0.872326 0.225125 1.0 2
-0.771799 0.300281 1.0 2
-0.823241 0.189987 1.0 2
-0.92291 0.199737 1.0 2
-0.862391 0.319033 1.0 2
-0.837786 0.252101 1.0 2
-0.872774 0.27071 1.0 2
-0.83006 0.293592 1.0 2
-0.864564 0.274031 1.0 2
-0.878454 0.224776 1.0 2
-0.790168 0.239501 1.0 2
-0.858262 0.268613 1.0 2
-0.791877 0.209261 1.0 2
-0.876262 0.230186 1.0 2
-0.89618 0.196616 1.0 2
-0.855667 0.208696 1.0 2
-0.847296 0.204359 1.0 2
-0.835045 0.195825 1.0 2
-0.892328 0.240868 1.0 2
-0.848219 0.301434 1.0 2
-0.872598 0.254252 1.0 2
-0.837479 0.200541 1.0 2
-0.906847 0.192846 1.0 2
-0.854989 0.299646 1.0 2
-0.898429 0.237001 1.0 2
-0.754905 0.219393 1.0 2
-0.961101 0.17283 1.0 2
-0.886033 0.266872 1.0 2
-0.864938 0.177726 1.0 2
-0.927837 0.223233 1.0 2
-0.897521 0.252671 1.0 2
-0.837851 0.215918 1.0 2
-0.858035 0.266235 1.0 2
-0.882049 0.244898 1.0 2
-0.90016 0.166788 1.0 2
-0.885197 0.249145 1.0 2
-0.849586 0.309879 1.0 2
-0.86534 0.240341 1.0 2
-0.779846 0.254392 1.0 2
-0.865113 0.249644 1.0 2
-0.874331 0.211739 1.0 2
-0.810762 0.249505 1.0 2
-0.775539 0.229449 1.0 2
-0.837088 0.215562 1.0 2
-0.872418 0.285261 1.0 2
-0.819265 0.240825 1.0 2
-0.836625 0.178205 1.0 2
-0.811732 0.222646 1.0 2
-0.775448 0.211434 1.0 2
-0.873579 0.263628 1.0 2
-0.867208 0.2174 1.0 2
-0.83426 0.285378 1.0 2
-0.800277 0.228742 1.0 2
-0.84554 0.242567 1.0 2
-0.814691 0.133486 1.0 2
-0.825021 0.178511 1.0 2
-0.862683 0.252272 1.0 2
-0.821476 0.216258 1.0 2
-0.821932 0.234752 1.0 2
-0.866921 0.194695 1.0 2
-0.815242 0.267297 1.0 2
-0.805279 0.257609 1.0 2
-0.769984 0.205356 1.0 2
-0.928063 0.245937 1.0 2
-0.812399 0.19913 1.0 2
-0.789178 0.255519 1.0 2
-0.809501 0.22414 1.0 2
-0.788835 0.316763 1.0 2
-0.829999 0.221286 1.0 2
-0.853178 0.198014 1.0 2
-0.801188 0.240903 1.0 2
-0.88574 0.221723 1.0 2
-0.80667 0.213845 1.0 2
-0.813327 0.194768 1.0 2
-0.764545 0.238149 1.0 2
-0.858919 0.23685 1.0 2
-0.844678 0.244875 1.0 2
-0.79144 0.217137 1.0 2
-0.826237 0.270636 1.0 2
-0.904476 0.211968 1.0 2
-0.833792 0.236802 1.0 2
-0.834655 0.234616 1.0 2
-0.83938 0.276176 1.0 2
-0.890899 0.223139 1.0 2
-0.857186 0.226067 1.0 2
-0.826484 0.223578 1.0 2
-0.843484 0.252896 1.0 2
-0.759557 0.209565 1.0 2
-0.825881 0.26614 1.0 2
-0.764088 0.285357 1.0 2
-0.78221 0.305443 1.0 2
-0.757051 0.283059 1.0 2
-0.811705 0.253528 1.0 2
-0.740962 0.214944 1.0 2
-0.781534 0.250587 1.0 2
-0.771954 0.227426 1.0 2
-0.809672 0.275735 1.0 2
-0.852392 0.261384 1.0 2
-0.815712 0.23723 1.0 2
-0.775223 0.21404 1.0 2
-0.77312 0.198605 1.0 2
-0.796634 0.190713 1.0 2
-0.784779 0.280847 1.0 2
-0.823615 0.19243 1.0 2
-0.782982 0.17053 1.0 2
-0.804843 0.236441 1.0 2
-0.737905 0.287744 1.0 2
-0.824291 0.19607 1.0 2
-0.8 0.198728 1.0 2
-0.719722 0.198869 1.0 2
-0.83327 0.175526 1.0 2
-0.819168 0.178762 1.0 2
-0.791287 0.213101 1.0 2
-0.767529 0.262321 1.0 2
-0.821498 0.170421 1.0 2
-0.774597 0.192216 1.0 2
-0.749983 0.265757 1.0 2
-0.826465 0.213693 1.0 2
-0.842902 0.212213 1.0 2
-0.730915 0.20437 1.0 2
-0.825501 0.243498 1.0 2
-0.748005 0.275975 1.0 2
-0.769028 0.21205 1.0 2
-0.711712 0.280432 1.0 2
-0.809683 0.197905 1.0 2
-0.742964 0.254553 1.0 2
-0.762953 0.245115 1.0 2
-0.784727 0.183163 1.0 2
-0.723435 0.258931 1.0 2
-0.711599 0.202346 1.0 2
-0.794073 0.227417 1.0 2
-0.75553 0.206169 1.0 2
-0.750651 0.249607 1.0 2
-0.763646 0.24091 1.0 2
-0.716367 0.194775 1.0 2
-0.744657 0.258015 1.0 2
-0.718281 0.232971 1.0 2
-0.773953 0.249533 1.0 2
-0.777354 0.285094 1.0 2
-0.802421 0.187211 1.0 2
-0.704725 0.190631 1.0 2
-0.733555 0.199348 1.0 2
-0.735823 0.248288 1.0 2
-0.761826 0.180511 1.0 2
-0.65891 0.193997 1.0 2
-0.688266 0.272892 1.0 2
-0.740834 0.331923 1.0 2
-0.732363 0.193002 1.0 2
-0.709159 0.284931 1.0 2
-0.733602 0.187084 1.0 2
-0.670478 0.255192 1.0 2
-0.731632 0.219173 1.0 2
-0.688167 0.214951 1.0 2
-0.735492 0.270297 1.0 2
-0.643339 0.261126 1.0 2
-0.705054 0.239456 1.0 2
-0.700783 0.200077 1.0 2
-0.705421 0.241472 1.0 2
-0.688286 0.19313 1.0 2
-0.617468 0.22256 1.0 2
-0.762306 0.176327 1.0 2
-0.794347 0.251038 1.0 2
-0.685241 0.249528 1.0 2
-0.764881 0.213978 1.0 2
-0.733332 0.22662 1.0 2
-0.669766 0.220068 1.0 2
-0.679146 0.25847 1.0 2
-0.752019 0.243325 1.0 2
-0.653274 0.211497 1.0 2
-0.720107 0.242295 1.0 2
-0.702975 0.134322 1.0 2
-0.692119 0.192233 1.0 2
-0.721887 0.24008 1.0 2
-0.648786 0.187398 1.0 2
-0.709712 0.150141 1.0 2
-0.712547 0.207926 1.0 2
-0.678878 0.204791 1.0 2
-0.708043 0.220618 1.0 2
-0.67436 0.195982 1.0 2
-0.696278 0.20751 1.0 2
-0.681992 0.280076 1.0 2
-0.710743 0.185524 1.0 2
-0.665548 0.25192 1.0 2
-0.646683 0.235029 1.0 2
-0.625929 0.207073 1.0 2
-0.672793 0.230631 1.0 2
-0.613482 0.190256 1.0 2
-0.693639 0.145632 1.0 2
-0.61548 0.203839 1.0 2
-0.663616 0.204521 1.0 2
-0.615441 0.246013 1.0 2
-0.6757 0.187881 1.0 2
-0.719527 0.178547 1.0 2
-0.760723 0.18054 1.0 2
-0.719506 0.19765 1.0 2
-0.620242 0.234746 1.0 2
-0.670598 0.236285 1.0 2
-0.634283 0.207903 1.0 2
-0.634925 0.204917 1.0 2
-0.586201 0.124895 1.0 2
-0.651188 0.203868 1.0 2
-0.674327 0.189799 1.0 2
-0.64906 0.214466 1.0 2
-0.585749 0.24225 1.0 2
-0.623195 0.205278 1.0 2
-0.6267 0.305326 1.0 2
-0.665745 0.274043 1.0 2
-0.602543 0.192258 1.0 2
-0.652403 0.197623 1.0 2
-0.693418 0.265229 1.0 2
-0.619353 0.215867 1.0 2
-0.644604 0.224991 1.0 2
-0.65132 0.149494 1.0 2
-0.654139 0.195371 1.0 2
-0.594663 0.23118 1.0 2
-0.638514 0.207506 1.0 2
-0.675534 0.16424 1.0 2
-0.615083 0.179953 1.0 2
-0.613901 0.203598 1.0 2
-0.647961 0.171584 1.0 2
-0.692471 0.263055 1.0 2
-0.646887 0.147918 1.0 2
-0.663195 0.199732 1.0 2
-0.637784 0.183843 1.0 2
-0.651464 0.192519 1.0 2
-0.69505 0.229112 1.0 2
-0.624923 0.190705 1.0 2
-0.688446 0.214811 1.0 2
-0.640578 0.277629 1.0 2
-0.593199 0.148682 1.0 2
-0.605776 0.192418 1.0 2
-0.610411 0.320012 1.0 2
-0.697786 0.252353 1.0 2
-0.590347 0.270582 1.0 2
-0.661587 0.189504 1.0 2
-0.531064 0.212466 1.0 2
-0.562738 0.162793 1.0 2
-0.559152 0.21879 1.0 2
-0.5436 0.249568 1.0 2
-0.598288 0.229738 1.0 2
-0.620826 0.155676 1.0 2
-0.632826 0.189076 1.0 2
-0.598473 0.235924 1.0 2
-0.629102 0.219069 1.0 2
-0.667578 0.124756 1.0 2
-0.577016 0.231241 1.0 2
-0.658689 0.170164 1.0 2
-0.599025 0.201265 1.0 2
-0.648658 0.212425 1.0 2
-0.567223 0.228167 1.0 2
-0.642386 0.203248 1.0 2
-0.548693 0.22784 1.0 2
-0.54692 0.149061 1.0 2
-0.629206 0.134911 1.0 2
-0.517973 0.228454 1.0 2
-0.633821 0.198582 1.0 2
-0.649732 0.197164 1.0 2
-0.505138 0.266124 1.0 2
-0.586027 0.195762 1.0 2
-0.584127 0.17532 1.0 2
-0.575585 0.164011 1.0 2
-0.593992 0.164976 1.0 2
-0.573513 0.250494 1.0 2
-0.564724 0.243721 1.0 2
-0.586373 0.208142 1.0 2
-0.586927 0.131689 1.0 2
-0.607164 0.164656 1.0 2
-0.588272 0.285914 1.0 2
-0.562924 0.126436 1.0 2
-0.643494 0.183196 1.0 2
-0.624552 0.235262 1.0 2
-0.599333 0.145608 1.0 2
-0.614319 0.198814 1.0 2
-0.537748 0.174487 1.0 2
-0.639579 0.112979 1.0 2
-0.604633 0.18899 1.0 2
-0.585013 0.164046 1.0 2
-0.576742 0.242303 1.0 2
-0.545227 0.191981 1.0 2
-0.663629 0.119383 1.0 2
-0.615208 0.214987 1.0 2
-0.562589 0.204003 1.0 2
-0.603729 0.146496 1.0 2
-0.53863 0.199379 1.0 2
-0.588492 0.112706 1.0 2
-0.535069 0.126247 1.0 2
-0.643491 0.196607 1.0 2
-0.65319 0.201581 1.0 2
-0.606863 0.159981 1.0 2
-0.636234 0.178775 1.0 2
-0.542763 0.171439 1.0 2
-0.559496 0.161562 1.0 2
-0.586613 0.17438 1.0 2
-0.600311 0.148859 1.0 2
-0.589696 0.185509 1.0 2
-0.58714 0.214469 1.0 2
-0.558838 0.210671 1.0 2
-0.514591 0.157058 1.0 2
-0.581474 0.150578 1.0 2
-0.672464 0.250197 1.0 2
-0.548442 0.19739 1.0 2
-0.571724 0.193177 1.0 2
-0.615936 0.179378 1.0 2
-0.580829 0.19506 1.0 2
-0.537482 0.172708 1.0 2
-0.573705 0.208235 1.0 2
-0.59454 0.190442 1.0 2
-0.54631 0.134923 1.0 2
-0.539216 0.206724 1.0 2
-0.493466 0.191776 1.0 2
-0.631912 0.111221 1.0 2
-0.63861 0.137477 1.0 2
-0.57973 0.145917 1.0 2
-0.531579 0.216077 1.0 2
-0.603161 0.116447 1.0 2
-0.592681 0.205069 1.0 2
-0.589284 0.120985 1.0 2
-0.581294 0.1923 1.0 2
-0.56538 0.103174 1.0 2
-0.494736 0.235491 1.0 2
-0.560656 0.174647 1.0 2
-0.602093 0.146884 1.0 2
-0.576768 0.161724 1.0 2
-0.66988 0.150062 1.0 2
-0.674949 0.16336 1.0 2
-0.572461 0.223898 1.0 2
-0.498719 0.17198 1.0 2
-0.5744 0.222643 1.0 2
-0.570217 0.122424 1.0 2
-0.540282 0.128356 1.0 2
-0.573872 0.240256 1.0 2
-0.600664 0.147374 1.0 2
-0.686175 0.165703 1.0 2
-0.595726 0.21844 1.0 2
-0.554033 0.204994 1.0 2
-0.533277 0.127459 1.0 2
-0.551558 0.134098 1.0 2
-0.598503 0.123199 1.0 2
-0.51972 0.155088 1.0 2
-0.550804 0.142686 1.0 2
-0.657224 0.174174 1.0 2
-0.613727 0.148396 1.0 2
-0.587336 0.123648 1.0 2
-0.584973 0.172876 1.0 2
-0.586688 0.124682 1.0 2
-0.601623 0.0972598 1.0 2
-0.643625 0.189196 1.0 2
-0.533044 0.125071 1.0 2
-0.540418 0.156982 1.0 2
-0.53896 0.121026 1.0 2
-0.645393 0.116438 1.0 2
-0.525735 0.0819518 1.0 2
-0.556641 0.186063 1.0 2
-0.540784 0.0900891 1.0 2
-0.564923 0.194008 1.0 2
-0.530928 0.180089 1.0 2
-0.612482 0.111205 1.0 2
-0.592054 0.124633 1.0 2
-0.583508 0.0951481 1.0 2
-0.546991 0.203661 1.0 2
-0.611504 0.212119 1.0 2
-0.588421 0.171108 1.0 2
-0.456589 0.125799 1.0 2
-0.57688 0.122639 1.0 2
-0.565362 0.180772 1.0 2
-0.622035 0.201056 1.0 2
-0.606202 0.119283 1.0 2
-0.595703 0.186186 1.0 2
-0.540984 0.147191 1.0 2
-0.553115 0.184202 1.0 2
-0.536848 0.140603 1.0 2
-0.529517 0.200351 1.0 2
-0.620479 0.111517 1.0 2
-0.547966 0.0668641 1.0 2
-0.603837 0.187356 1.0 2
-0.628371 0.0997977 1.0 2
-0.57594 0.0857064 1.0 2
-0.624799 0.174903 1.0 2
-0.51 0.170999 1.0 2
-0.587164 0.181948 1.0 2
-0.524963 0.157771 1.0 2
-0.583618 0.0972535 1.0 2
-0.531636 0.207236 1.0 2
-0.505832 0.155039 1.0 2
-0.610801 0.128185 1.0 2
-0.550947 0.0723149 1.0 2
-0.597157 0.178962 1.0 2
-0.591258 0.0775002 1.0 2
-0.551322 0.118688 1.0 2
-0.60476 0.157196 1.0 2
-0.547022 0.166609 1.0 2
-0.66924 0.0939433 1.0 2
-0.554854 0.136961 1.0 2
-0.599539 0.178003 1.0 2
-0.566063 0.118961 1.0 2
-0.663903 0.191402 1.0 2
-0.593816 0.174051 1.0 2
-0.584089 0.142952 1.0 2
-0.585077 0.1137 1.0 2
-0.628303 0.152506 1.0 2
-0.59349 0.135023 1.0 2
-0.68125 0.15686 1.0 2
-0.55437 0.135726 1.0 2
-0.566817 0.0960661 1.0 2
-0.621097 0.14326 1.0 2
-0.669704 0.110754 1.0 2
-0.619761 0.0982188 1.0 2
-0.589343 0.0967623 1.0 2
-0.603019 0.143212 1.0 2
-0.620358 0.165518 1.0 2
-0.685756 0.151785 1.0 2
-0.611346 0.133868 1.0 2
-0.659909 0.109405 1.0 2
-0.636217 0.0964923 1.0 2
-0.612531 0.171015 1.0 2
-0.60078 0.13618 1.0 2
-0.660016 0.132196 1.0 2
-0.664584 0.127037 1.0 2
-0.669296 0.114214 1.0 2
-0.651932 0.153612 1.0 2
-0.613759 0.200866 1.0 2
-0.60531 0.133893 1.0 2
-0.634374 0.202816 1.0 2
-0.651771 0.16863 1.0 2
-0.610377 0.124158 1.0 2
-0.742897 0.0991253 1.0 2
-0.71593 0.183767 1.0 2
-0.664697 0.125164 1.0 2
-0.614993 0.19946 1.0 2
-0.640061 0.149595 1.0 2
-0.694021 0.120556 1.0 2
-0.689335 0.120527 1.0 2
-0.6565 0.179463 1.0 2
-0.64307 0.155117 1.0 2
-0.699459 0.0780044 1.0 2
-0.627168 0.126463 1.0 2
-0.693264 0.135361 1.0 2
-0.690778 0.113956 1.0 2
-0.673247 0.205248 1.0 2
-0.690082 0.0994811 1.0 2
-0.731402 0.147546 1.0 2
-0.688417 0.0835999 1.0 2
-0.68673 0.198119 1.0 2
-0.694145 0.118921 1.0 2
-0.689527 0.117087 1.0 2
-0.698717 0.0799414 1.0 2
-0.705531 0.15494 1.0 2
-0.750068 0.147177 1.0 2
-0.704364 0.126823 1.0 2
-0.71893 0.084888 1.0 2
-0.68664 0.121058 1.0 2
-0.710634 0.115174 1.0 2
-0.736463 0.184774 1.0 2
-0.685218 0.124953 1.0 2
-0.714044 0.120577 1.0 2
-0.728125 0.127848 1.0 2
-0.72652 0.104136 1.0 2
-0.655645 0.14085 1.0 2
-0.725822 0.102314 1.0 2
-0.723374 0.110502 1.0 2
-0.721929 0.164755 1.0 2
-0.760404 0.0515712 1.0 2
-0.785639 0.126873 1.0 2
-0.720886 0.10263 1.0 2
-0.700858 0.11257 1.0 2
-0.70489 0.127986 1.0 2
-0.754262 0.155786 1.0 2
-0.72104 0.0594955 1.0 2
-0.754255 0.0580295 1.0 2
-0.792431 0.207142 1.0 2
-0.70727 0.130097 1.0 2
-0.786266 0.148137 1.0 2
-0.770571 0.151096 1.0 2
-0.656087 0.187193 1.0 2
-0.717657 0.0948661 1.0 2
-0.769996 0.130123 1.0 2
-0.777673 0.136265 1.0 2
-0.763039 0.113506 1.0 2
-0.78829 0.0890842 1.0 2
-0.695117 0.123005 1.0 2
-0.732387 0.113653 1.0 2
-0.744269 0.100461 1.0 2
-0.720415 0.119702 1.0 2
-0.697037 0.142154 1.0 2
-0.733681 0.132401 1.0 2
-0.781252 0.0452009 1.0 2
-0.822904 0.0649553 1.0 2
-0.765517 0.140864 1.0 2
-0.779333 0.130487 1.0 2
-0.750385 0.141138 1.0 2
-0.783973 0.189926 1.0 2
-0.761009 0.0748206 1.0 2
-0.74263 0.15191 1.0 2
-0.798921 0.0991473 1.0 2
-0.799069 0.0676354 1.0 2
-0.832842 0.0886074 1.0 2
-0.839946 0.122174 1.0 2
-0.847909 0.0512355 1.0 2
-0.826173 0.0906339 1.0 2
-0.713566 0.0969737 1.0 2
-0.813732 0.122439 1.0 2
-0.765574 0.0948793 1.0 2
-0.771647 0.161981 1.0 2
-0.714465 0.160092 1.0 2
-0.844211 0.126385 1.0 2
-0.749024 0.100898 1.0 2
-0.804631 0.131365 1.0 2
-0.820218 0.126163 1.0 2
-0.791255 0.0917566 1.0 2
-0.745993 0.056625 1.0 2
-0.72865 0.121181 1.0 2
-0.782039 0.124655 1.0 2
-0.811167 0.117146 1.0 2
-0.773347 0.076583 1.0 2
-0.817105 0.0674592 1.0 2
-0.900028 0.0426296 1.0 2
-0.833234 0.0742071 1.0 2
-0.79928 0.0670868 1.0 2
-0.7842 0.112126 1.0 2
-0.78126 0.0692817 1.0 2
-0.729753 0.113257 1.0 2
-0.811436 0.184319 1.0 2
-0.837756 0.0949559 1.0 2
-0.819734 0.0691813 1.0 2
-0.802378 0.10386 1.0 2
-0.837856 0.0973372 1.0 2
-0.816478 0.0463762 1.0 2
-0.876568 0.114201 1.0 2
-0.800374 0.0236777 1.0 2
-0.867202 0.132722 1.0 2
-0.847863 0.0726201 1.0 2
-0.795144 0.0920498 1.0 2
-0.853846 0.116684 1.0 2
-0.760843 0.0855057 1.0 2
-0.801695 0.0813163 1.0 2
-0.817994 0.130976 1.0 2
-0.81365 0.102677 1.0 2
-0.822722 0.123582 1.0 2
-0.869204 0.0519198 1.0 2
-0.865102 0.0432831 1.0 2
-0.806089 0.0667813 1.0 2
-0.843304 0.0491125 1.0 2
-0.876123 -0.0132219 1.0 2
-0.868575 0.0655125 1.0 2
-0.831132 0.11954 1.0 2
-0.853103 0.0792389 1.0 2
-0.827206 0.0458843 1.0 2
-0.891767 0.0548273 1.0 2
-0.850665 0.059758 1.0 2
-0.894122 0.0746478 1.0 2
-0.858681 0.049022 1.0 2
-0.939628 0.0546822 1.0 2
-0.882938 0.0954109 1.0 2
-0.877933 0.127072 1.0 2
-0.864166 0.0700827 1.0 2
-0.844745 0.0669913 1.0 2
-0.839883 0.0925221 1.0 2
-0.830623 -0.00631905 1.0 2
-0.847443 0.0517843 1.0 2
-0.819181 0.0897522 1.0 2
-0.867072 0.00978802 1.0 2
-0.842858 0.12236 1.0 2
-0.818275 0.0712563 1.0 2
-0.797998 0.102272 1.0 2
-0.822296 0.0979248 1.0 2
-0.879235 0.00232142 1.0 2
-0.855282 0.111152 1.0 2
-0.850471 0.0649029 1.0 2
-0.858006 0.110173 1.0 2
-0.859145 0.0451732 1.0 2
-0.841285 0.0722785 1.0 2
-0.791277 0.00532377 1.0 2
-0.766003 0.0958669 1.0 2
-0.833519 0.071591 1.0 2
-0.876075 0.041533 1.0 2
-0.865982 0.0747455 1.0 2
-0.789072 0.0271304 1.0 2
-0.849629 0.0853492 1.0 2
-0.810657 0.0435284 1.0 2
-0.852418 0.0695395 1.0 2
-0.826627 0.0578965 1.0 2
-0.814096 0.0819526 1.0 2
-0.866336 0.024863 1.0 2
-0.841601 0.150264 1.0 2
-0.821463 -0.00762072 1.0 2
-0.853068 0.109805 1.0 2
-0.847772 0.04662 1.0 2
-0.881206 0.00736574 1.0 2
-0.80972 -0.0350008 1.0 2
-0.92903 0.107653 1.0 2
-0.878964 0.0866277 1.0 2
-0.803921 0.0644636 1.0 2
-0.908222 0.0473136 1.0 2
-0.901021 0.0806625 1.0 2
-0.837108 0.0621301 1.0 2
-0.818107 0.0424741 1.0 2
-0.804799 0.0785856 1.0 2
-0.827939 0.0759859 1.0 2
-0.818683 0.100308 1.0 2
-0.804037 -0.00362829 1.0 2
-0.906513 0.0743678 1.0 2
-0.815679 0.0414096 1.0 2
-0.862215 0.0753131 1.0 2
-0.827871 0.0338273 1.0 2
-0.829775 -0.0077606 1.0 2
-0.847335 0.0741137 1.0 2
-0.849453 0.0915893 1.0 2
-0.878643 -0.0122876 1.0 2
-0.881929 0.0274377 1.0 2
-0.793808 0.00220185 1.0 2
-0.821845 -0.000184564 1.0 2
-0.893873 0.00740077 1.0 2
-0.864733 0.0631381 1.0 2
-0.840141 0.0549253 1.0 2
-0.91988 0.0529542 1.0 2
-0.895388 0.023279 1.0 2
-0.811634 0.00318726 1.0 2
-0.927661 0.0372209 1.0 2
-0.8466 -0.0223337 1.0 2
-0.871066 0.0380514 1.0 2
-0.860502 0.0834973 1.0 2
-0.790971 0.0177023 1.0 2
-0.813234 0.0105853 1.0 2
-0.878854 0.052022 1.0 2
-0.870819 0.0498254 1.0 2
-0.829162 0.0380361 1.0 2
-0.857691 0.0202608 1.0 2
-0.87018 -0.0614383 1.0 2
-0.927865 -0.00377199 1.0 2
-0.86062 0.0904573 1.0 2
-0.793092 0.0320874 1.0 2
-0.926053 0.0750107 1.0 2
-0.872836 0.0281486 1.0 2
-0.812861 -0.00472745 1.0 2
-0.84309 0.0335711 1.0 2
-0.802583 0.00818361 1.0 2
-0.839063 0.0408598 1.0 2
-0.878271 0.0154005 1.0 2
-0.886583 -0.0564691 1.0 2
-0.85014 -0.00179648 1.0 2
-0.811769 0.00644879 1.0 2
-0.826873 0.0279073 1.0 2
-0.840538 0.100585 1.0 2
-0.846653 0.0555591 1.0 2
-0.786364 -0.0453859 1.0 2
-0.79752 -0.0546183 1.0 2
-0.834674 0.0399056 1.0 2
-0.875149 -0.0173747 1.0 2
-0.885895 -0.0270046 1.0 2
-0.850522 0.00660204 1.0 2
-0.836493 0.0219555 1.0 2
-0.780459 -0.0426923 1.0 2
-0.886313 0.025145 1.0 2
-0.896221 -0.00126046 1.0 2
-0.88492 0.0284747 1.0 2
-0.868751 0.0105368 1.0 2
-0.84141 0.019276 1.0 2
-0.889718 0.015947 1.0 2
-0.847826 -0.0140968 1.0 2
-0.837346 -0.00583205 1.0 2
-0.873137 -0.0483079 1.0 2
-0.861906 -0.0075209 1.0 2
-0.850253 -0.0562358 1.0 2
-0.803553 -0.00871994 1.0 2
-0.852494 -0.0225171 1.0 2
-0.805772 0.0613177 1.0 2
-0.879762 -0.0275756 1.0 2
-0.864839 0.00612792 1.0 2
-0.84582 -0.0342632 1.0 2
-0.810121 -0.0355098 1.0 2
-0.804415 -0.0731506 1.0 2
-0.885299 -0.0639574 1.0 2
-0.829425 0.00997883 1.0 2
-0.826498 -0.00859894 1.0 2
-0.822055 -0.0862514 1.0 2
-0.878772 -0.0247774 1.0 2
-0.84386 -0.0700533 1.0 2
-0.823968 0.0410579 1.0 2
-0.864042 0.0454868 1.0 2
-0.875173 -0.0924799 1.0 2
-0.893281 -0.0498395 1.0 2
-0.8702 -0.0306577 1.0 2
-0.853948 -0.0142595 1.0 2
-0.875273 -0.0536559 1.0 2
-0.802647 -0.0156532 1.0 2
-0.830855 -0.0402695 1.0 2
-0.844928 -0.12003 1.0 2
-0.865202 -0.0387161 1.0 2
-0.84085 -0.0679744 1.0 2
-0.837196 -0.0278022 1.0 2
-0.793022 -0.0199396 1.0 2
-0.872858 -0.0166485 1.0 2
-0.851445 -0.111061 1.0 2
-0.827001 -0.0368202 1.0 2
-0.752967 -0.0283572 1.0 2
-0.858697 -0.0875946 1.0 2
-0.869077 0.0236114 1.0 2
-0.84651 0.00691124 1.0 2
-0.820491 -0.0629002 1.0 2
-0.759311 -0.0521737 1.0 2
-0.806627 0.0346309 1.0 2
-0.824435 -0.0193114 1.0 2
-0.779203 0.000469499 1.0 2
-0.796301 -0.0859744 1.0 2
-0.766427 0.0223355 1.0 2
-0.729351 -0.0199503 1.0 2
-0.870462 -0.118566 1.0 2
-0.85259 -0.00449612 1.0 2
-0.808394 -0.0854912 1.0 2
-0.809278 -0.132462 1.0 2
-0.841543 -0.0465374 1.0 2
-0.849371 -0.0347158 1.0 2
-0.82749 -0.0863536 1.0 2
-0.849223 0.0196634 1.0 2
-0.837952 -0.0928079 1.0 2
-0.881093 -0.0461172 1.0 2
-0.799828 -0.0697979 1.0 2
-0.867817 0.00435995 1.0 2
-0.798855 -0.00550233 1.0 2
-0.834857 -0.0772752 1.0 2
-0.790319 0.011936 1.0 2
-0.878538 0.0443287 1.0 2
-0.843955 -0.0770579 1.0 2
-0.831782 0.0116514 1.0 2
-0.817336 -0.12282 1.0 2
-0.773621 -0.0968454 1.0 2
-0.849916 0.0057264 1.0 2
-0.76755 -0.0427012 1.0 2
-0.78378 -0.0830034 1.0 2
-0.823961 -0.0407673 1.0 2
-0.87575 -0.0458014 1.0 2
-0.843705 -0.115575 1.0 2
-0.84833 -0.0303519 1.0 2
-0.824513 -0.079367 1.0 2
-0.795175 -0.0866141 1.0 2
-0.83318 -0.12104 1.0 2
-0.81026 -0.0693396 1.0 2
-0.826311 -0.0343207 1.0 2
-0.818028 -0.0348751 1.0 2
-0.853268 -0.063691 1.0 2
-0.761672 -0.105534 1.0 2
-0.785831 -0.0888201 1.0 2
-0.896361 -0.0427314 1.0 2
-0.79726 -0.03955 1.0 2
-0.877811 -0.0563314 1.0 2
-0.826083 -0.131898 1.0 2
-0.752486 -0.0651179 1.0 2
-0.871602 -0.0306821 1.0 2
-0.827629 -0.0973211 1.0 2
-0.795111 0.000178002 1.0 2
-0.867595 -0.0470622 1.0 2
-0.775648 -0.0289451 1.0 2
-0.777628 -0.0246729 1.0 2
-0.790532 -0.084982 1.0 2
-0.808166 -0.0220573 1.0 2
-0.858435 -0.0287144 1.0 2
-0.804422 -0.0537439 1.0 2
-0.80898 -0.0552021 1.0 2
-0.787505 -0.0301176 1.0 2
-0.807562 -0.0509229 1.0 2
-0.780045 -0.0111897 1.0 2
-0.796133 -0.0647625 1.0 2
-0.848743 -0.0637004 1.0 2
-0.860709 -0.0515348 1.0 2
-0.857534 -0.0170464 1.0 2
-0.826648 -0.0869114 1.0 2
-0.804004 -0.0146012 1.0 2
-0.849891 -0.0384912 1.0 2
-0.786389 -0.0324832 1.0 2
-0.790606 0.0304973 1.0 2
-0.763256 -0.0653345 1.0 2
-0.81874 -0.0696584 1.0 2
-0.800745 -0.0775636 1.0 2
-0.789483 -0.010689 1.0 2
-0.785293 0.0385653 1.0 2
-0.782005 -0.0368803 1.0 2
-0.838958 0.0121888 1.0 2
-0.815438 0.00611157 1.0 2
-0.742731 -0.0902954 1.0 2
-0.791864 -0.0594994 1.0 2
-0.735211 -0.0393236 1.0 2
-0.806437 0.000202964 1.0 2
-0.801984 -0.0258319 1.0 2
-0.720476 -0.0283021 1.0 2
-0.772909 -0.00888398 1.0 2
-0.7554 -0.0219663 1.0 2
-0.739759 -0.00744858 1.0 2
-0.800939 -0.0433649 1.0 2
-0.820119 -0.0107587 1.0 2
-0.781283 -0.0225836 1.0 2
-0.738539 -0.0593324 1.0 2
-0.723901 -0.0259777 1.0 2
-0.809498 0.0338007 1.0 2
-0.764576 -0.0381813 1.0 2
-0.804131 -0.0259255 1.0 2
-0.784733 -0.0279482 1.0 2
-0.765021 0.0220597 1.0 2
-0.766908 -0.0603793 1.0 2
-0.765447 0.0321451 1.0 2
-0.773718 -0.0674508 1.0 2
-0.770065 0.012194 1.0 2
-0.70543 0.0100758 1.0 2
-0.716823 0.0859865 1.0 2
-0.714868 0.0376626 1.0 2
-0.842505 0.0454594 1.0 2
-0.732529 0.011948 1.0 2
-0.760911 0.0746214 1.0 2
-0.77916 0.0424182 1.0 2
-0.844788 0.0857987 1.0 2
-0.741095 0.0524956 1.0 2
-0.78055 0.0215352 1.0 2
-0.745222 -0.00048717 1.0 2
-0.736417 -0.011305 1.0 2
-0.733774 0.00560221 1.0 2
-0.763124 0.0636319 1.0 2
-0.768527 -0.0149849 1.0 2
-0.786703 0.0573593 1.0 2
-0.770157 0.0316597 1.0 2
-0.830092 0.0207968 1.0 2
-0.743116 0.0605696 1.0 2
-0.769688 0.00623423 1.0 2
-0.715904 0.0659422 1.0 2
-0.789385 0.0426206 1.0 2
-0.841311 0.007033 1.0 2
-0.706176 -0.0397268 1.0 2
-0.29645 0.455491 1.0 3
-0.252137 0.463573 1.0 3
-0.252563 0.380465 1.0 3
-0.256342 0.470221 1.0 3
-0.322433 0.37417 1.0 3
-0.267412 0.465699 1.0 3
-0.243877 0.440973 1.0 3
-0.248481 0.419254 1.0 3
-0.317083 0.441469 1.0 3
-0.267049 0.40469 1.0 3
-0.255501 0.404515 1.0 3
-0.234435 0.453729 1.0 3
-0.210852 0.546398 1.0 3
-0.217781 0.426714 1.0 3
-0.304882 0.499459 1.0 3
-0.339836 0.47762 1.0 3
-0.263061 0.384607 1.0 3
-0.257175 0.402041 1.0 3
-0.272067 0.461301 1.0 3
-0.206095 0.508139 1.0 3
-0.247788 0.501269 1.0 3
-0.276795 0.434582 1.0 3
-0.255398 0.476815 1.0 3
-0.210313 0.464627 1.0 3
-0.243877 0.357153 1.0 3
-0.194604 0.47293 1.0 3
-0.234927 0.475528 1.0 3
-0.234298 0.460004 1.0 3
-0.2603 0.456783 1.0 3
-0.26876 0.462827 1.0 3
-0.234683 0.47319 1.0 3
-0.250469 0.447777 1.0 3
-0.207918 0.40287 1.0 3
-0.225302 0.408625 1.0 3
-0.24166 0.457046 1.0 3
-0.3242 0.462095 1.0 3
-0.25735 0.459998 1.0 3
-0.228504 0.508059 1.0 3
-0.204652 0.510901 1.0 3
-0.184608 0.436363 1.0 3
-0.201797 0.470148 1.0 3
-0.170771 0.54273 1.0 3
-0.119628 0.475109 1.0 3
-0.129298 0.432885 1.0 3
-0.179327 0.431026 1.0 3
-0.16567 0.487639 1.0 3
-0.0837254 0.511068 1.0 3
-0.188648 0.46175 1.0 3
-0.212832 0.546757 1.0 3
-0.148015 0.55418 1.0 3
-0.120438 0.444272 1.0 3
-0.140398 0.548902 1.0 3
-0.20441 0.433265 1.0 3
-0.130408 0.448609 1.0 3
-0.222359 0.559957 1.0 3
-0.172249 0.513158 1.0 3
-0.231864 0.45654 1.0 3
-0.22815 0.507726 1.0 3
-0.201674 0.515092 1.0 3
-0.201119 0.420182 1.0 3
-0.219303 0.472445 1.0 3
-0.181243 0.486095 1.0 3
-0.146963 0.438024 1.0 3
-0.108125 0.517575 1.0 3
-0.165574 0.505458 1.0 3
-0.0838479 0.405875 1.0 3
-0.085542 0.458712 1.0 3
-0.0863795 0.441526 1.0 3
-0.165444 0.435442 1.0 3
-0.176813 0.506228 1.0 3
-0.138455 0.481141 1.0 3
-0.0539892 0.471988 1.0 3
-0.117545 0.506438 1.0 3
-0.156577 0.497232 1.0 3
-0.152202 0.437064 1.0 3
-0.189796 0.475163 1.0 3
-0.157544 0.450191 1.0 3
-0.179042 0.445661 1.0 3
-0.175072 0.49804 1.0 3
-0.126288 0.41323 1.0 3
-0.090939 0.514833 1.0 3
-0.139542 0.505813 1.0 3
-0.139665 0.558983 1.0 3
-0.141601 0.506767 1.0 3
-0.0660299 0.446174 1.0 3
-0.157364 0.422139 1.0 3
-0.0688461 0.505437 1.0 3
-0.127208 0.522068 1.0 3
-0.117039 0.492296 1.0 3
-0.140994 0.459025 1.0 3
-0.00408193 0.445763 1.0 3
-0.0468695 0.459033 1.0 3
0.0204195 0.435186 1.0 3
-0.0128782 0.43771 1.0 3
-0.103896 0.421424 1.0 3
-0.042758 0.489528 1.0 3
-0.0290706 0.511741 1.0 3
-0.050283 0.460987 1.0 3
-0.018155 0.419442 1.0 3
-0.0139153 0.501796 1.0 3
0.0407478 0.392734 1.0 3
-0.0759331 0.475757 1.0 3
-0.0171915 0.443206 1.0 3
0.0157017 0.460411 1.0 3
0.00231253 0.459565 1.0 3
0.0019768 0.450244 1.0 3
-0.0580801 0.472823 1.0 3
-0.0242884 0.433638 1.0 3
-0.0172074 0.492382 1.0 3
0.0393217 0.518045 1.0 3
0.0478066 0.538005 1.0 3
0.0243031 0.473177 1.0 3
0.025602 0.456125 1.0 3
-0.0621071 0.47979 1.0 3
0.0324281 0.464152 1.0 3
0.0201944 0.479075 1.0 3
0.0153125 0.419918 1.0 3
0.00130243 0.462266 1.0 3
0.0118803 0.465388 1.0 3
0.107896 0.475042 1.0 3
0.0255812 0.433188 1.0 3
0.0965198 0.476561 1.0 3
0.0646245 0.378173 1.0 3
0.103344 0.417077 1.0 3
0.080941 0.423501 1.0 3
0.0967744 0.429472 1.0 3
0.0844724 0.503131 1.0 3
0.0893921 0.407094 1.0 3
0.0959385 0.421481 1.0 3
0.0252297 0.439407 1.0 3
0.0822758 0.396552 1.0 3
0.0980102 0.310377 1.0 3
0.0625957 0.394357 1.0 3
0.131588 0.372355 1.0 3
0.063064 0.446043 1.0 3
0.0979023 0.376365 1.0 3
0.0935092 0.409581 1.0 3
0.101584 0.399787 1.0 3
0.0598567 0.306855 1.0 3
0.147849 0.422879 1.0 3
0.113275 0.460074 1.0 3
0.0696248 0.338258 1.0 3
0.0533322 0.342659 1.0 3
0.105636 0.399412 1.0 3
0.0691962 0.402932 1.0 3
0.0820238 0.387973 1.0 3
0.0302262 0.372847 1.0 3
0.0314638 0.330392 1.0 3
0.0233547 0.38891 1.0 3
0.109089 0.348757 1.0 3
-0.017613 0.368733 1.0 3
0.0661995 0.299513 1.0 3
0.062081 0.355246 1.0 3
0.0474038 0.340991 1.0 3
0.0299242 0.403775 1.0 3
0.02075 0.356625 1.0 3
0.0610052 0.280965 1.0 3
-0.0213895 0.386232 1.0 3
0.042718 0.322592 1.0 3
0.0678467 0.376768 1.0 3
0.0787397 0.287573 1.0 3
0.0351329 0.370849 1.0 3
0.00283553 0.325378 1.0 3
0.0400354 0.374101 1.0 3
0.0314152 0.347064 1.0 3
0.0531457 0.356203 1.0 3
0.00159115 0.268669 1.0 3
0.0314232 0.371507 1.0 3
0.0323466 0.370204 1.0 3
0.0710149 0.365106 1.0 3
0.0252662 0.374509 1.0 3
0.0801918 0.333371 1.0 3
-0.00162587 0.31209 1.0 3
-0.0146877 0.234711 1.0 3
-0.0196026 0.34841 1.0 3
0.072919 0.308613 1.0 3
-0.0209689 0.365464 1.0 3
0.00102808 0.385086 1.0 3
0.0555305 0.368243 1.0 3
0.00353164 0.330875 1.0 3
-0.0244957 0.181909 1.0 3
-0.023304 0.242685 1.0 3
-0.0741177 0.286276 1.0 3
-0.0690512 0.228148 1.0 3
-0.0923807 0.229992 1.0 3
-0.0658877 0.251197 1.0 3
-0.0263482 0.2783 1.0 3
-0.0261844 0.249417 1.0 3
-0.0441077 0.233753 1.0 3
-0.0260906 0.241106 1.0 3
-0.0454075 0.240264 1.0 3
-0.0227449 0.243598 1.0 3
-0.0694584 0.193729 1.0 3
-0.0252319 0.257925 1.0 3
-0.0596547 0.228044 1.0 3
-0.0646755 0.177044 1.0 3
-0.0486443 0.26848 1.0 3
-0.0376447 0.250908 1.0 3
-0.0590899 0.239119 1.0 3
-0.0364847 0.208996 1.0 3
-0.152573 0.232965 1.0 3
-0.141903 0.202451 1.0 3
-0.112018 0.170873 1.0 3
-0.204248 0.179869 1.0 3
-0.184938 0.198422 1.0 3
-0.162772 0.210214 1.0 3
-0.121684 0.155311 1.0 3
-0.146063 0.152827 1.0 3
-0.157279 0.218351 1.0 3
-0.195891 0.197208 1.0 3
-0.246832 0.161136 1.0 3
-0.310713 0.0783791 1.0 3
-0.157414 0.136317 1.0 3
-0.214908 0.214498 1.0 3
-0.260009 0.109115 1.0 3
-0.213661 0.144846 1.0 3
-0.208424 0.221267 1.0 3
-0.267754 0.130157 1.0 3
-0.241413 0.20535 1.0 3
-0.245397 0.164204 1.0 3
-0.241592 0.118022 1.0 3
-0.258112 0.143595 1.0 3
-0.30936 0.186431 1.0 3
-0.236288 0.198814 1.0 3
-0.282004 0.151289 1.0 3
-0.205428 0.188108 1.0 3
-0.192198 0.161107 1.0 3
-0.271061 0.176215 1.0 3
-0.274545 0.139179 1.0 3
-0.285754 0.248597 1.0 3
-0.387816 0.218213 1.0 3
-0.360412 0.157604 1.0 3
-0.287442 0.216783 1.0 3
-0.362778 0.142654 1.0 3
-0.31393 0.154527 1.0 3
-0.373756 0.119873 1.0 3
-0.336155 0.133987 1.0 3
-0.3227 0.135433 1.0 3
-0.319423 0.11859 1.0 3
-0.327678 0.193291 1.0 3
-0.319213 0.137742 1.0 3
-0.315084 0.095602 1.0 3
-0.307461 0.014647 1.0 3
-0.404439 0.0986782 1.0 3
-0.302007 0.0683235 1.0 3
-0.33209 0.0383813 1.0 3
-0.359028 0.0670527 1.0 3
-0.291464 0.151517 1.0 3
-0.333898 0.0542271 1.0 3
-0.306758 0.171643 1.0 3
-0.265709 0.079671 1.0 3
-0.297974 0.0911497 1.0 3
-0.388831 0.189192 1.0 3
-0.267197 0.11736 1.0 3
-0.326661 0.05949 1.0 3
-0.311109 0.100829 1.0 3
-0.286154 0.18469 1.0 3
-0.297745 0.150491 1.0 3
-0.245598 0.146889 1.0 3
-0.277453 0.0513111 1.0 3
-0.334132 0.112221 1.0 3
-0.301707 0.0682994 1.0 3
-0.286198 0.0820402 1.0 3
-0.282308 0.11766 1.0 3
-0.247584 0.10812 1.0 3
-0.347526 0.090905 1.0 3
-0.240464 0.0760301 1.0 3
-0.314762 0.0245236 1.0 3
-0.233592 0.125775 1.0 3
-0.238682 0.0786747 1.0 3
-0.0989847 0.208516 1.0 3
-0.0942533 0.319428 1.0 3
-0.161524 0.183433 1.0 3
-0.149867 0.218373 1.0 3
-0.135867 0.375328 1.0 3
0.003001 0.25031 1.0 3
-0.129831 0.336131 1.0 3
-0.120932 0.334391 1.0 3
-0.0362598 0.270674 1.0 3
-0.0852588 0.229592 1.0 3
-0.174019 0.199588 1.0 3
-0.0731407 0.213439 1.0 3
-0.139822 0.255689 1.0 3
-0.106194 0.220477 1.0 3
-0.148991 0.2056 1.0 3
-0.141649 0.231465 1.0 3
-0.124047 0.318518 1.0 3
-0.0847667 0.174226 1.0 3
-0.124056 0.249717 1.0 3
-0.150681 0.227667 1.0 3
0.128731 0.490264 1.0 3
0.164511 0.480005 1.0 3
0.192851 0.486031 1.0 3
0.184723 0.502353 1.0 3
0.145019 0.433878 1.0 3
0.138581 0.475476 1.0 3
0.142852 0.4089 1.0 3
0.17837 0.508664 1.0 3
0.207131 0.501008 1.0 3
0.176397 0.487006 1.0 3
0.133216 0.517559 1.0 3
0.198118 0.470169 1.0 3
0.181472 0.445538 1.0 3
0.107159 0.452546 1.0 3
0.145049 0.476304 1.0 3
0.133661 0.474455 1.0 3
0.201269 0.361664 1.0 3
0.129267 0.489538 1.0 3
0.189514 0.493689 1.0 3
0.105022 0.520779 1.0 3
0.170666 0.394368 1.0 3
0.210519 0.482324 1.0 3
0.15696 0.446079 1.0 3
0.172506 0.487826 1.0 3
0.133324 0.452196 1.0 3
0.22882 0.447196 1.0 3
0.177031 0.504729 1.0 3
0.21185 0.490051 1.0 3
0.123941 0.462544 1.0 3
0.197141 0.446267 1.0 3
0.146488 0.375788 1.0 3
0.212985 0.445976 1.0 3
0.161837 0.437482 1.0 3
0.133598 0.488689 1.0 3
0.106895 0.451618 1.0 3
0.160394 0.412238 1.0 3
0.155569 0.434126 1.0 3
0.133208 0.489172 1.0 3
0.185732 0.463465 1.0 3
0.176031 0.484406 1.0 3
0.255856 0.407886 1.0 3
0.251143 0.47847 1.0 3
0.191138 0.456434 1.0 3
0.122321 0.505193 1.0 3
0.211247 0.434959 1.0 3
0.218965 0.41372 1.0 3
0.20856 0.437124 1.0 3
0.212792 0.398116 1.0 3
0.189446 0.425915 1.0 3
0.213504 0.372417 1.0 3
0.23567 0.366042 1.0 3
0.175166 0.37525 1.0 3
0.181923 0.351646 1.0 3
0.237985 0.478336 1.0 3
0.199169 0.43987 1.0 3
0.272485 0.393126 1.0 3
0.249733 0.391329 1.0 3
0.214277 0.394825 1.0 3
0.218583 0.379958 1.0 3
0.270738 0.37095 1.0 3
0.187421 0.434286 1.0 3
0.272293 0.3605 1.0 3
0.223164 0.422738 1.0 3
0.265961 0.419003 1.0 3
0.160167 0.432349 1.0 3
0.250948 0.452985 1.0 3
0.240839 0.389015 1.0 3
0.325493 0.393537 1.0 3
0.249972 0.435508 1.0 3
0.170664 0.396884 1.0 3
0.305483 0.3707 1.0 3
0.226439 0.444396 1.0 3
0.287506 0.438087 1.0 3
0.28736 0.450083 1.0 3
0.306032 0.421021 1.0 3
0.234168 0.417951 1.0 3
0.223209 0.414346 1.0 3
0.284686 0.321173 1.0 3
0.212303 0.421446 1.0 3
0.277436 0.377906 1.0 3
0.196034 0.36314 1.0 3
0.249227 0.446103 1.0 3
0.263062 0.369992 1.0 3
0.194979 0.432604 1.0 3
0.245761 0.383197 1.0 3
0.215757 0.371177 1.0 3
0.183689 0.335838 1.0 3
0.247446 0.344227 1.0 3
0.276697 0.347844 1.0 3
0.235387 0.401925 1.0 3
0.219547 0.398095 1.0 3
0.232415 0.354516 1.0 3
0.242205 0.330182 1.0 3
0.289451 0.414793 1.0 3
0.23485 0.265906 1.0 3
0.255149 0.374836 1.0 3
0.21857 0.297281 1.0 3
0.219042 0.38723 1.0 3
0.23401 0.330518 1.0 3
0.309645 0.364493 1.0 3
0.294444 0.262366 1.0 3
0.165176 0.303803 1.0 3
0.216982 0.317449 1.0 3
0.325181 0.300422 1.0 3
0.202015 0.215791 1.0 3
0.231568 0.30789 1.0 3
0.260032 0.316627 1.0 3
0.175362 0.293473 1.0 3
0.220924 0.293658 1.0 3
0.194971 0.264076 1.0 3
0.224673 0.278785 1.0 3
0.127624 0.257168 1.0 3
0.227708 0.241445 1.0 3
0.247471 0.303823 1.0 3
0.286124 0.314806 1.0 3
0.303024 0.17709 1.0 3
0.294584 0.260213 1.0 3
0.231204 0.281646 1.0 3
0.18667 0.267275 1.0 3
0.226783 0.289516 1.0 3
0.235865 0.218077 1.0 3
0.216642 0.262482 1.0 3
0.165558 0.309074 1.0 3
0.242001 0.210888 1.0 3
0.231978 0.28525 1.0 3
0.21365 0.256079 1.0 3
0.201467 0.321679 1.0 3
0.186929 0.280983 1.0 3
0.220922 0.236059 1.0 3
0.287521 0.152929 1.0 3
0.243079 0.206607 1.0 3
0.176211 0.176774 1.0 3
0.241254 0.304532 1.0 3
0.167037 0.218482 1.0 3
0.212976 0.230908 1.0 3
0.198994 0.174592 1.0 3
0.182605 0.22657 1.0 3
0.273017 0.185632 1.0 3
0.186073 0.185045 1.0 3
0.170392 0.230022 1.0 3
0.131046 0.160336 1.0 3
0.0794887 0.152572 1.0 3
0.18128 0.240713 1.0 3
0.0767577 0.213394 1.0 3
0.0730759 0.183686 1.0 3
0.139893 0.190052 1.0 3
0.127343 0.215318 1.0 3
0.131789 0.164689 1.0 3
0.148048 0.201653 1.0 3
0.211206 0.192892 1.0 3
0.114315 0.136408 1.0 3
0.147973 0.139401 1.0 3
0.0672484 0.147398 1.0 3
0.0913121 0.164086 1.0 3
0.129667 0.192496 1.0 3
0.126572 0.103239 1.0 3
0.12169 0.142649 1.0 3
0.0903692 0.204584 1.0 3
0.0170805 0.165708 1.0 3
0.0973185 0.167911 1.0 3
0.052627 0.175452 1.0 3
0.0513882 0.0130244 1.0 3
0.109983 0.0631434 1.0 3
0.016597 0.118465 1.0 3
0.0689358 0.171692 1.0 3
0.0490414 0.157524 1.0 3
0.100655 0.16347 1.0 3
0.0554012 0.162816 1.0 3
0.113877 0.0454103 1.0 3
0.0255176 0.13319 1.0 3
0.0364599 0.098807 1.0 3
0.0245029 0.117381 1.0 3
0.0258466 0.133863 1.0 3
0.0139827 0.0354491 1.0 3
0.0430605 0.146249 1.0 3
-0.0056094 0.0288539 1.0 3
0.111284 0.0778193 1.0 3
0.0665733 0.163843 1.0 3
0.043587 0.0982377 1.0 3
0.0559558 0.092897 1.0 3
0.087624 0.133432 1.0 3
0.00681962 0.0822436 1.0 3
0.0855737 0.162012 1.0 3
0.0104256 0.168825 1.0 3
0.0260499 0.082325 1.0 3
-0.0132957 0.107598 1.0 3
0.0449343 0.115447 1.0 3
-0.00880892 0.130898 1.0 3
0.0407233 0.170476 1.0 3
0.0734513 0.135645 1.0 3
-0.00160108 0.0904126 1.0 3
0.0484696 0.129333 1.0 3
0.00567752 0.0682088 1.0 3
-0.00495489 0.0432838 1.0 3
0.10427 0.133171 1.0 3
0.0263241 0.0814478 1.0 3
-0.0202338 0.103899 1.0 3
0.0560859 0.135725 1.0 3
0.0287174 0.102063 1.0 3
0.0295116 0.100414 1.0 3
-0.00650917 0.176389 1.0 3
0.0262331 0.103976 1.0 3
0.0229798 0.19641 1.0 3
-0.00906188 0.0753822 1.0 3
0.0467122 0.143884 1.0 3
-0.00972042 0.0874045 1.0 3
0.0320744 0.141771 1.0 3
-0.0100081 0.0507956 1.0 3
0.0535272 0.125714 1.0 3
0.00831599 0.105331 1.0 3
0.0321597 0.158379 1.0 3
0.0433477 0.137395 1.0 3
0.0688716 0.203982 1.0 3
0.117359 0.168878 1.0 3
0.0416868 0.13995 1.0 3
0.131554 0.208606 1.0 3
0.097444 0.210775 1.0 3
0.0137377 0.231044 1.0 3
0.0834037 0.134818 1.0 3
0.0266384 0.160269 1.0 3
0.0370788 0.197592 1.0 3
0.106312 0.283764 1.0 3
0.131709 0.266028 1.0 3
0.0724403 0.243879 1.0 3
0.0248862 0.201767 1.0 3
0.0882125 0.207105 1.0 3
0.11632 0.183393 1.0 3
0.111293 0.232024 1.0 3
0.113681 0.247219 1.0 3
0.0847536 0.210439 1.0 3
0.0532157 0.256273 1.0 3
0.0799837 0.263334 1.0 3
0.0473543 0.260279 1.0 3
0.0659163 0.271164 1.0 3
0.0782967 0.257628 1.0 3
0.16295 0.257194 1.0 3
0.0423126 0.236977 1.0 3
0.115465 0.287176 1.0 3
0.161722 0.21093 1.0 3
0.03737 0.229741 1.0 3
0.0894457 0.23494 1.0 3
0.128996 0.241792 1.0 3
0.067111 0.222603 1.0 3
0.0636129 0.26999 1.0 3
0.0401679 0.243419 1.0 3
0.0821815 0.260875 1.0 3
0.0646012 0.21279 1.0 3
0.136353 0.272468 1.0 3
0.136406 0.326016 1.0 3
0.0815766 0.225941 1.0 3
0.149618 0.226483 1.0 3
0.114614 0.267137 1.0 3
0.12514 0.27231 1.0 3
0.126556 0.30565 1.0 3
0.164169 0.242225 1.0 3
0.0712256 0.25699 1.0 3
0.10069 0.330728 1.0 3
0.0603855 0.257841 1.0 3
0.151187 0.26784 1.0 3
0.140666 0.26378 1.0 3
0.161845 0.351364 1.0 3
0.131845 0.343231 1.0 3
0.0868963 0.316448 1.0 3
0.134652 0.354124 1.0 3
0.178267 0.366379 1.0 3
0.110292 0.288534 1.0 3
0.225712 0.273819 1.0 3
0.157384 0.284592 1.0 3
0.135087 0.322219 1.0 3
0.168197 0.255593 1.0 3
0.174368 0.363135 1.0 3
0.150144 0.339252 1.0 3
0.206738 0.352743 1.0 3
0.202584 0.378186 1.0 3
0.208023 0.316593 1.0 3
0.19556 0.340373 1.0 3
0.280605 0.309877 1.0 3
0.167494 0.335298 1.0 3
0.138816 0.388964 1.0 3
0.162329 0.326021 1.0 3
0.232581 0.263882 1.0 3
0.274904 0.392444 1.0 3
0.190866 0.33365 1.0 3
0.219727 0.33776 1.0 3
0.178462 0.361961 1.0 3
0.23479 0.344502 1.0 3
0.129865 0.297418 1.0 3
0.255014 0.344959 1.0 3
0.212825 0.332584 1.0 3
0.21673 0.358123 1.0 3
0.224226 0.280005 1.0 3
0.227189 0.408093 1.0 3
0.259059 0.398846 1.0 3
0.281458 0.432392 1.0 3
0.2704 0.365485 1.0 3
0.23959 0.328252 1.0 3
0.214662 0.386842 1.0 3
0.301101 0.38206 1.0 3
0.232594 0.387368 1.0 3
0.22761 0.405615 1.0 3
0.234172 0.396408 1.0 3
0.238824 0.341546 1.0 3
0.212385 0.359911 1.0 3
0.170575 0.340143 1.0 3
0.268299 0.37035 1.0 3
0.208121 0.327181 1.0 3
0.253628 0.386616 1.0 3
0.21047 0.321362 1.0 3
0.264466 0.280864 1.0 3
0.274719 0.375246 1.0 3
0.27852 0.334146 1.0 3
0.1291 0.382752 1.0 3
0.226951 0.429459 1.0 3
0.182984 0.373889 1.0 3
0.286631 0.397449 1.0 3
0.166425 0.401739 1.0 3
0.214716 0.377493 1.0 3
0.301873 0.329191 1.0 3
0.202621 0.394839 1.0 3
0.209136 0.369534 1.0 3
0.155745 0.350095 1.0 3
0.225844 0.353774 1.0 3
0.288057 0.35247 1.0 3
0.216232 0.360352 1.0 3
0.285542 0.350388 1.0 3
0.303921 0.472739 1.0 3
0.257626 0.422574 1.0 3
0.203249 0.318845 1.0 3
0.266362 0.390091 1.0 3
0.234674 0.423977 1.0 3
0.18563 0.44645 1.0 3
0.227659 0.310665 1.0 3
0.227163 0.367997 1.0 3
0.205588 0.41976 1.0 3
0.256029 0.418683 1.0 3
0.21848 0.360787 1.0 3
0.219735 0.404023 1.0 3
0.16275 0.388059 1.0 3
0.251735 0.41359 1.0 3
0.184777 0.362045 1.0 3
0.197649 0.367985 1.0 3
0.200302 0.362573 1.0 3
0.19804 0.459971 1.0 3
0.0956869 0.392614 1.0 3
0.174452 0.435772 1.0 3
0.221286 0.385195 1.0 3
0.109322 0.373398 1.0 3
0.157904 0.425597 1.0 3
0.102456 0.422509 1.0 3
0.158802 0.397813 1.0 3
0.121282 0.410161 1.0 3
0.146237 0.460887 1.0 3
0.104656 0.440419 1.0 3
0.149588 0.447015 1.0 3
0.125165 0.359693 1.0 3
0.14999 0.448563 1.0 3
0.0806022 0.390058 1.0 3
0.0779648 0.484135 1.0 3
0.16551 0.411849 1.0 3
0.17482 0.491155 1.0 3
0.131656 0.351295 1.0 3
0.146098 0.455679 1.0 3
0.0832399 0.412108 1.0 3
0.14859 0.334848 1.0 3
0.135217 0.427513 1.0 3
0.115634 0.480251 1.0 3
0.192451 0.373506 1.0 3
0.118727 0.428401 1.0 3
0.0671306 0.417079 1.0 3
0.0810929 0.432762 1.0 3
0.0843477 0.376882 1.0 3
0.0947352 0.43644 1.0 3
0.14037 0.423299 1.0 3
0.128863 0.413755 1.0 3
0.136011 0.405862 1.0 3
0.101205 0.421867 1.0 3
0.10728 0.421491 1.0 3
0.0806075 0.424447 1.0 3
0.0855887 0.395698 1.0 3
0.085491 0.353251 1.0 3
0.0591411 0.380551 1.0 3
0.033824 0.368576 1.0 3
0.132599 0.395088 1.0 3
0.080221 0.445343 1.0 3
0.117642 0.442351 1.0 3
0.123387 0.339752 1.0 3
0.0329198 0.402246 1.0 3
0.0730853 0.38994 1.0 3
0.103719 0.395928 1.0 3
0.12916 0.39769 1.0 3
0.126274 0.406313 1.0 3
0.0730228 0.375258 1.0 3
0.0942826 0.303553 1.0 3
0.0918671 0.463288 1.0 3
0.0719927 0.369102 1.0 3
0.0443253 0.342058 1.0 3
0.075642 0.340166 1.0 3
0.0665092 0.355005 1.0 3
0.0794156 0.385495 1.0 3
0.0268643 0.412344 1.0 3
0.070964 0.373302 1.0 3
0.0643673 0.371295 1.0 3
0.0594801 0.367075 1.0 3
0.0226396 0.334427 1.0 3
0.0172794 0.396723 1.0 3
0.0373745 0.349681 1.0 3
0.0652025 0.42949 1.0 3
-0.0141732 0.364217 1.0 3
0.0701432 0.359119 1.0 3
0.125353 0.330157 1.0 3
0.0343012 0.276073 1.0 3
0.0925084 0.270562 1.0 3
0.0416941 0.278576 1.0 3
0.0336935 0.308081 1.0 3
0.0819804 0.241651 1.0 3
0.110749 0.362035 1.0 3
0.0276216 0.369409 1.0 3
0.0177795 0.305984 1.0 3
0.0204412 0.343847 1.0 3
0.0344199 0.354777 1.0 3
0.0315398 0.289543 1.0 3
0.031901 0.273175 1.0 3
0.020443 0.232126 1.0 3
0.0144207 0.268056 1.0 3
0.00941358 0.278185 1.0 3
0.0392625 0.271484 1.0 3
0.0310007 0.25969 1.0 3
0.047857 0.263292 1.0 3
0.0329889 0.229069 1.0 3
0.00655666 0.294238 1.0 3
0.0353967 0.242388 1.0 3
0.013524 0.26632 1.0 3
0.0499341 0.242105 1.0 3
0.120169 0.198356 1.0 3
0.00253015 0.225377 1.0 3
0.059217 0.180554 1.0 3
0.0784101 0.298922 1.0 3
-0.0136983 0.194923 1.0 3
0.00249001 0.209227 1.0 3
0.0747429 0.235675 1.0 3
-0.0191232 0.249086 1.0 3
0.110283 0.149258 1.0 3
0.0624529 0.179158 1.0 3
-0.00881802 0.196229 1.0 3
0.0312451 0.175437 1.0 3
0.0904994 0.213587 1.0 3
0.034377 0.159885 1.0 3
0.0131608 0.15053 1.0 3
0.0623812 0.145277 1.0 3
0.0489203 0.161266 1.0 3
0.05552 0.162525 1.0 3
0.0436262 0.143026 1.0 3
0.091959 0.189682 1.0 3
0.040494 0.148029 1.0 3
-0.0496995 0.20131 1.0 3
0.0489994 0.195311 1.0 3
0.0364254 0.192502 1.0 3
0.10331 0.197094 1.0 3
0.0891322 0.154606 1.0 3
0.021627 0.139411 1.0 3
-0.0542694 0.0675004 1.0 3
0.0517925 0.212066 1.0 3
0.0720631 0.173007 1.0 3
-0.0540971 0.136666 1.0 3
0.054012 0.178428 1.0 3
0.0779137 0.0964899 1.0 3
0.0137637 0.219069 1.0 3
0.0430229 0.157847 1.0 3
0.024166 0.139075 1.0 3
-0.0115846 0.167921 1.0 3
0.078694 0.153625 1.0 3
0.0591256 0.167393 1.0 3
0.0434879 0.195772 1.0 3
-0.00767161 0.200892 1.0 3
-0.0168797 0.139757 1.0 3
0.0437277 0.167657 1.0 3
-0.0255457 0.157927 1.0 3
0.1108 0.0898314 1.0 3
0.062108 0.119035 1.0 3
0.0576559 0.144558 1.0 3
0.0594128 0.119291 1.0 3
0.0316781 0.111597 1.0 3
0.0378956 0.120378 1.0 3
0.0476765 0.0845025 1.0 3
0.0641302 0.14305 1.0 3
-0.000983437 0.0817649 1.0 3
0.0309802 0.125138 1.0 3
0.0669215 0.110787 1.0 3
0.10496 0.111545 1.0 3
0.0263184 0.147416 1.0 3
0.0822953 0.0670122 1.0 3
0.109026 0.0675282 1.0 3
0.0883868 0.0359032 1.0 3
-0.0405253 0.165195 1.0 3
0.107188 0.105344 1.0 3
0.0806958 0.107454 1.0 3
0.0655032 0.0996741 1.0 3
0.048585 0.124258 1.0 3
0.116115 0.155192 1.0 3
0.0281325 0.129197 1.0 3
0.109991 0.104612 1.0 3
0.16137 0.0185164 1.0 3
0.160255 0.0361114 1.0 3
0.11812 0.12937 1.0 3
0.0937857 0.0689874 1.0 3
0.0609379 0.0997902 1.0 3
0.0917807 0.0915929 1.0 3
0.14738 0.180885 1.0 3
0.1277 0.117303 1.0 3
0.107935 0.0761011 1.0 3
0.174249 0.0603104 1.0 3
0.155268 0.0186945 1.0 3
0.206394 0.0537767 1.0 3
0.148633 0.110583 1.0 3
0.16145 0.118611 1.0 3
0.146745 0.13232 1.0 3
0.125318 0.113194 1.0 3
0.197329 0.101408 1.0 3
0.133445 0.118889 1.0 3
0.161877 0.152389 1.0 3
0.143238 0.0189703 1.0 3
0.200403 0.117263 1.0 3
0.191706 0.0510543 1.0 3
0.210413 0.112266 1.0 3
0.233322 0.0061005 1.0 3
0.183205 0.0672703 1.0 3
0.169388 -0.00412477 1.0 3
0.133433 0.127341 1.0 3
0.175505 0.0679546 1.0 3
0.196378 0.0843496 1.0 3
0.186854 0.0964736 1.0 3
0.181928 0.109442 1.0 3
0.210431 0.10554 1.0 3
0.1312 0.165438 1.0 3
0.186394 0.17543 1.0 3
0.166457 0.0555202 1.0 3
0.139141 0.121274 1.0 3
0.134795 0.124067 1.0 3
0.143384 0.104603 1.0 3
0.216651 0.0511096 1.0 3
0.220784 0.178835 1.0 3
0.156961 0.105869 1.0 3
0.231471 0.0914576 1.0 3
0.184744 0.1231 1.0 3
0.101145 0.0836673 1.0 3
0.209462 0.112341 1.0 3
0.160591 0.201511 1.0 3
0.22706 0.100013 1.0 3
0.166275 0.137082 1.0 3
0.182402 0.160719 1.0 3
0.157332 0.139302 1.0 3
0.203194 0.192426 1.0 3
0.235944 0.158023 1.0 3
0.14276 0.170567 1.0 3
0.189292 0.127731 1.0 3
0.187247 0.161174 1.0 3
0.195159 0.129756 1.0 3
0.108458 0.213354 1.0 3
0.169312 0.0952921 1.0 3
0.237048 0.213206 1.0 3
0.147941 0.158933 1.0 3
0.120961 0.141701 1.0 3
0.214349 0.18877 1.0 3
0.216496 0.181402 1.0 3
0.169919 0.209032 1.0 3
0.228669 0.217717 1.0 3
0.146373 0.147442 1.0 3
0.183054 0.136498 1.0 3
0.149878 0.188847 1.0 3
0.19248 0.187659 1.0 3
0.219332 0.224244 1.0 3
0.194847 0.237778 1.0 3
0.224785 0.217216 1.0 3
0.16625 0.20319 1.0 3
0.15042 0.225511 1.0 3
0.168163 0.206382 1.0 3
0.183952 0.218978 1.0 3
0.203595 0.230965 1.0 3
0.166106 0.150924 1.0 3
0.212939 0.261457 1.0 3
0.188622 0.196847 1.0 3
0.201552 0.311442 1.0 3
0.21341 0.259979 1.0 3
0.170378 0.315999 1.0 3
0.208706 0.236996 1.0 3
0.250965 0.290362 1.0 3
0.186418 0.244608 1.0 3
0.142649 0.236381 1.0 3
0.229794 0.245444 1.0 3
0.188724 0.203072 1.0 3
0.304997 0.298539 1.0 3
0.180026 0.307342 1.0 3
0.195514 0.306761 1.0 3
0.263497 0.295939 1.0 3
0.215432 0.265953 1.0 3
0.208534 0.291675 1.0 3
0.266024 0.25531 1.0 3
0.173204 0.228592 1.0 3
0.184795 0.298708 1.0 3
0.20091 0.282762 1.0 3
0.160574 0.28972 1.0 3
0.177916 0.340094 1.0 3
0.156825 0.383218 1.0 3
0.272993 0.406977 1.0 3
0.202458 0.356829 1.0 3
0.187391 0.378307 1.0 3
0.231325 0.317326 1.0 3
0.187144 0.259865 1.0 3
0.167713 0.27188 1.0 3
0.194034 0.289385 1.0 3
0.163286 0.302907 1.0 3
0.179776 0.324215 1.0 3
0.141941 0.34043 1.0 3
0.223655 0.347358 1.0 3
0.196969 0.324622 1.0 3
0.194423 0.303845 1.0 3
0.170811 0.311948 1.0 3
0.186709 0.38308 1.0 3
0.18684 0.348338 1.0 3
0.143915 0.285152 1.0 3
0.165958 0.357387 1.0 3
0.19028 0.271807 1.0 3
0.193808 0.322087 1.0 3
0.225831 0.334742 1.0 3
0.231835 0.374648 1.0 3
0.163349 0.331111 1.0 3
0.231491 0.298993 1.0 3
0.194432 0.32645 1.0 3
0.125599 0.359365 1.0 3
0.194707 0.332852 1.0 3
0.197713 0.334736 1.0 3
0.12351 0.401803 1.0 3
0.162625 0.349734 1.0 3
0.172894 0.371482 1.0 3
0.208707 0.282411 1.0 3
0.155706 0.350692 1.0 3
0.182235 0.375585 1.0 3
0.212135 0.443668 1.0 3
0.162859 0.281545 1.0 3
0.199479 0.39845 1.0 3
0.176885 0.334941 1.0 3
0.184332 0.375608 1.0 3
0.180649 0.354339 1.0 3
0.126987 0.392287 1.0 3
0.212124 0.405343 1.0 3
0.181774 0.299374 1.0 3
0.15755 0.375688 1.0 3
0.205301 0.33893 1.0 3
0.257713 0.41061 1.0 3
0.191485 0.352459 1.0 3
0.199638 0.386968 1.0 3
0.150254 0.281618 1.0 3
0.172798 0.344868 1.0 3
0.172172 0.421647 1.0 3
0.196695 0.360224 1.0 3
0.173737 0.364391 1.0 3
0.230991 0.402768 1.0 3
0.151682 0.477688 1.0 3
0.149944 0.357763 1.0 3
0.111781 0.361992 1.0 3
